<?xml version="1.0" standalone="yes"?>
<svg xmlns="http://www.w3.org/2000/svg" width="600" height="600">
<path style="fill:#007fc4; stroke:none;" d="M0 0L0 600L600 600L600 0L0 0z"/>
<path style="fill:#5c7fb9; stroke:none;" d="M129 103L133 102C130.954 101.249 130.404 101.344 129 103z"/>
<path style="fill:#5b7db8; stroke:none;" d="M169 133C176.123 134.496 187.108 128.242 194 126C187.264 123.61 175.211 130.095 169 133z"/>
<path style="fill:#ea8847; stroke:none;" d="M125 130L125 133C125.696 131.446 125.696 131.554 125 130z"/>
<path style="fill:#ffffff; stroke:none;" d="M126 130C126 153.989 128 177.969 128 202C174.871 202 223.595 212.913 265 235.309C355.711 284.374 413 384.25 413 487L485 488C485 395.749 448.517 301.547 382.985 236.015C349.615 202.645 309.35 177.601 266 159.424C235.858 146.786 203.274 139.102 171 134.428C156.319 132.302 140.326 133.411 126 130z"/>
<path style="fill:#f8d6c0; stroke:none;" d="M127 130C128.769 130.779 130.036 130.912 132 131C130.231 130.221 128.964 130.088 127 130z"/>
<path style="fill:#f0af84; stroke:none;" d="M132 130C133.769 130.779 135.036 130.912 137 131C135.231 130.221 133.964 130.088 132 130z"/>
<path style="fill:#eb9155; stroke:none;" d="M137 130C138.248 130.685 138.548 130.749 140 131C138.752 130.315 138.452 130.251 137 130z"/>
<path style="fill:#fae5d6; stroke:none;" d="M142.667 131.333C142.222 131.778 143.278 131.722 143.333 131.667C143.778 131.222 142.722 131.278 142.667 131.333z"/>
<path style="fill:#f6cdb1; stroke:none;" d="M144 131C145.248 131.685 145.549 131.749 147 132C145.752 131.315 145.452 131.251 144 131z"/>
<path style="fill:#efa675; stroke:none;" d="M147 131C148.506 131.683 149.315 131.826 151 132C149.494 131.317 148.685 131.174 147 131z"/>
<path style="fill:#f9decc; stroke:none;" d="M153 132C154.248 132.685 154.548 132.749 156 133C154.752 132.315 154.452 132.251 153 132z"/>
<path style="fill:#f1b288; stroke:none;" d="M156 132C157.248 132.685 157.548 132.749 159 133C157.752 132.315 157.452 132.251 156 132z"/>
<path style="fill:#e87e38; stroke:none;" d="M159.667 132.333C159.222 132.778 160.278 132.722 160.333 132.667C160.778 132.222 159.722 132.278 159.667 132.333z"/>
<path style="fill:#f8dac5; stroke:none;" d="M162 133C163.248 133.685 163.548 133.749 165 134C163.752 133.315 163.452 133.251 162 133z"/>
<path style="fill:#eea472; stroke:none;" d="M165 133C166.506 133.683 167.315 133.826 169 134C167.494 133.317 166.685 133.174 165 133z"/>
<path style="fill:#f4c4a4; stroke:none;" d="M171 134C172.248 134.685 172.548 134.749 174 135C172.752 134.315 172.452 134.251 171 134z"/>
<path style="fill:#e87f39; stroke:none;" d="M174.667 134.333C174.222 134.778 175.278 134.722 175.333 134.667C175.778 134.222 174.722 134.278 174.667 134.333z"/>
<path style="fill:#5b7db8; stroke:none;" d="M176 134L177 135L176 134z"/>
<path style="fill:#f5c6a6; stroke:none;" d="M177 135C178.248 135.685 178.548 135.749 180 136C178.752 135.315 178.452 135.251 177 135z"/>
<path style="fill:#e77a30; stroke:none;" d="M180.667 135.333C180.222 135.778 181.278 135.722 181.333 135.667C181.778 135.222 180.722 135.278 180.667 135.333z"/>
<path style="fill:#f2b48b; stroke:none;" d="M184.667 136.333C184.222 136.778 185.278 136.722 185.333 136.667C185.778 136.222 184.722 136.278 184.667 136.333z"/>
<path style="fill:#e87c35; stroke:none;" d="M186.667 136.333C186.222 136.778 187.278 136.722 187.333 136.667C187.778 136.222 186.722 136.278 186.667 136.333z"/>
<path style="fill:#f1b48b; stroke:none;" d="M189 137C190.248 137.685 190.548 137.749 192 138C190.752 137.315 190.452 137.251 189 137z"/>
<path style="fill:#e6782f; stroke:none;" d="M192 137L193 138L192 137z"/>
<path style="fill:#f3bd99; stroke:none;" d="M194.667 138.333C194.222 138.778 195.278 138.722 195.333 138.667C195.778 138.222 194.722 138.278 194.667 138.333z"/>
<path style="fill:#ea8a4a; stroke:none;" d="M196.667 138.333C196.222 138.778 197.278 138.722 197.333 138.667C197.778 138.222 196.722 138.278 196.667 138.333z"/>
<path style="fill:#f1b288; stroke:none;" d="M199 139C200.248 139.685 200.548 139.749 202 140C200.752 139.315 200.452 139.251 199 139z"/>
<path style="fill:#ad768d; stroke:none;" d="M202 139L203 140L202 139z"/>
<path style="fill:#f0ac7f; stroke:none;" d="M204 140C205.248 140.685 205.548 140.749 207 141C205.752 140.315 205.452 140.251 204 140z"/>
<path style="fill:#f8dac6; stroke:none;" d="M126 141L126 149C127.161 146.23 127.161 143.77 126 141z"/>
<path style="fill:#f1ae82; stroke:none;" d="M208.667 141.333C208.222 141.778 209.278 141.722 209.333 141.667C209.778 141.222 208.722 141.278 208.667 141.333z"/>
<path style="fill:#e98645; stroke:none;" d="M210 141L211 142L210 141z"/>
<path style="fill:#f1b68e; stroke:none;" d="M213 142L214 143L213 142z"/>
<path style="fill:#ea8c4d; stroke:none;" d="M214 142L215 143L214 142z"/>
<path style="fill:#f7d3bb; stroke:none;" d="M216 143L217 144L216 143z"/>
<path style="fill:#f0ab7d; stroke:none;" d="M217 143L218 144L217 143z"/>
<path style="fill:#e8803c; stroke:none;" d="M218 143L219 144L218 143z"/>
<path style="fill:#f7d5bd; stroke:none;" d="M220 144L221 145L220 144z"/>
<path style="fill:#f0aa7c; stroke:none;" d="M221 144L222 145L221 144z"/>
<path style="fill:#e8803a; stroke:none;" d="M222 144L223 145L222 144z"/>
<path style="fill:#f5caac; stroke:none;" d="M224 145L225 146L224 145z"/>
<path style="fill:#cf7362; stroke:none;" d="M225.667 145.333C225.222 145.778 226.278 145.722 226.333 145.667C226.778 145.222 225.722 145.278 225.667 145.333z"/>
<path style="fill:#f0aa7b; stroke:none;" d="M228 146L229 147L228 146z"/>
<path style="fill:#e77a32; stroke:none;" d="M229 146L230 147L229 146z"/>
<path style="fill:#f5c9ab; stroke:none;" d="M231 147L232 148L231 147z"/>
<path style="fill:#ec9961; stroke:none;" d="M232 147L233 148L232 147z"/>
<path style="fill:#f6ceb3; stroke:none;" d="M234 148L235 149L234 148z"/>
<path style="fill:#ed9d68; stroke:none;" d="M235 148L236 149L235 148z"/>
<path style="fill:#7e7bab; stroke:none;" d="M236 148L237 149L236 148z"/>
<path style="fill:#f2b790; stroke:none;" d="M126 149L126 158C127.256 155.006 127.256 151.994 126 149z"/>
<path style="fill:#f0ad81; stroke:none;" d="M238 149L239 150L238 149z"/>
<path style="fill:#e77c34; stroke:none;" d="M239 149L240 150L239 149z"/>
<path style="fill:#f2b891; stroke:none;" d="M241 150L242 151L241 150z"/>
<path style="fill:#e8813c; stroke:none;" d="M242 150L243 151L242 150z"/>
<path style="fill:#f0af83; stroke:none;" d="M244 151L245 152L244 151z"/>
<path style="fill:#e7782f; stroke:none;" d="M245 151L246 152L245 151z"/>
<path style="fill:#f1b288; stroke:none;" d="M247 152L248 153L247 152z"/>
<path style="fill:#e57326; stroke:none;" d="M248 152L249 153L248 152z"/>
<path style="fill:#efa777; stroke:none;" d="M250 153L251 154L250 153z"/>
<path style="fill:#f5c9ac; stroke:none;" d="M252 154L253 155L252 154z"/>
<path style="fill:#ea8e50; stroke:none;" d="M253 154L254 155L253 154z"/>
<path style="fill:#f5c8aa; stroke:none;" d="M255 155L256 156L255 155z"/>
<path style="fill:#e98644; stroke:none;" d="M256 155L257 156L256 155z"/>
<path style="fill:#f1b288; stroke:none;" d="M258 156L259 157L258 156z"/>
<path style="fill:#e57123; stroke:none;" d="M259 156L260 157L259 156z"/>
<path style="fill:#ed9c66; stroke:none;" d="M261 157L262 158L261 157z"/>
<path style="fill:#ea8e4f; stroke:none;" d="M126 158L126 167C127.256 164.006 127.256 160.994 126 158z"/>
<path style="fill:#f2b993; stroke:none;" d="M263 158L264 159L263 158z"/>
<path style="fill:#e6762b; stroke:none;" d="M264 158L265 159L264 158z"/>
<path style="fill:#ed9c66; stroke:none;" d="M266 159L267 160L266 159z"/>
<path style="fill:#f3bd99; stroke:none;" d="M268 160L269 161L268 160z"/>
<path style="fill:#e6762b; stroke:none;" d="M269 160L270 161L269 160z"/>
<path style="fill:#f6cdb2; stroke:none;" d="M270 161L271 162L270 161z"/>
<path style="fill:#ea8949; stroke:none;" d="M271 161L272 162L271 161z"/>
<path style="fill:#efa777; stroke:none;" d="M273 162L274 163L273 162z"/>
<path style="fill:#f2b891; stroke:none;" d="M275 163L276 164L275 163z"/>
<path style="fill:#bf757a; stroke:none;" d="M276 163L277 164L276 163z"/>
<path style="fill:#f6ceb3; stroke:none;" d="M277 164L278 165L277 164z"/>
<path style="fill:#e98644; stroke:none;" d="M278 164L279 165L278 164z"/>
<path style="fill:#f7d5be; stroke:none;" d="M279 165L280 166L279 165z"/>
<path style="fill:#ea8b4c; stroke:none;" d="M280 165L281 166L280 165z"/>
<path style="fill:#eea26f; stroke:none;" d="M282 166L283 167L282 166z"/>
<path style="fill:#e57023; stroke:none;" d="M126.333 167.667C126.278 167.722 126.222 168.778 126.667 168.333C126.722 168.278 126.778 167.222 126.333 167.667z"/>
<path style="fill:#f0ad80; stroke:none;" d="M284 167L285 168L284 167z"/>
<path style="fill:#f3bd99; stroke:none;" d="M286 168L287 169L286 168z"/>
<path style="fill:#e57225; stroke:none;" d="M287 168L288 169L287 168z"/>
<path style="fill:#5b7db8; stroke:none;" d="M126 169L127 170L126 169z"/>
<path style="fill:#f3bd99; stroke:none;" d="M288 169L289 170L288 169z"/>
<path style="fill:#ad768d; stroke:none;" d="M289 169L290 170L289 169z"/>
<path style="fill:#f5c8aa; stroke:none;" d="M290 170L291 171L290 170z"/>
<path style="fill:#e67327; stroke:none;" d="M291 170L292 171L291 170z"/>
<path style="fill:#f5c8aa; stroke:none;" d="M292 171L293 172L292 171z"/>
<path style="fill:#e57326; stroke:none;" d="M293 171L294 172L293 171z"/>
<path style="fill:#f5c8aa; stroke:none;" d="M294 172L295 173L294 172z"/>
<path style="fill:#e57326; stroke:none;" d="M295 172L296 173L295 172z"/>
<path style="fill:#f2ba94; stroke:none;" d="M296 173L297 174L296 173z"/>
<path style="fill:#f3bd99; stroke:none;" d="M298 174L299 175L298 174z"/>
<path style="fill:#f8dbc7; stroke:none;" d="M127 175L127 182C128.059 179.466 128.059 177.534 127 175z"/>
<path style="fill:#f1b288; stroke:none;" d="M300 175L301 176L300 175z"/>
<path style="fill:#efa777; stroke:none;" d="M302 176L303 177L302 176z"/>
<path style="fill:#eb9257; stroke:none;" d="M304 177L305 178L304 177z"/>
<path style="fill:#e8833f; stroke:none;" d="M306 178L307 179L306 178z"/>
<path style="fill:#f6ceb3; stroke:none;" d="M307 179L308 180L307 179z"/>
<path style="fill:#e57123; stroke:none;" d="M308 179L309 180L308 179z"/>
<path style="fill:#f2b891; stroke:none;" d="M309 180L310 181L309 180z"/>
<path style="fill:#ec9860; stroke:none;" d="M311 181L312 182L311 181z"/>
<path style="fill:#f2b993; stroke:none;" d="M127 182L127 188C127.951 185.715 127.951 184.285 127 182z"/>
<path style="fill:#e98644; stroke:none;" d="M313 182L314 183L313 182z"/>
<path style="fill:#f6ceb3; stroke:none;" d="M314 183L315 184L314 183z"/>
<path style="fill:#7e7bab; stroke:none;" d="M315 183L316 184L315 183z"/>
<path style="fill:#f0ad80; stroke:none;" d="M316 184L317 185L316 184z"/>
<path style="fill:#e98746; stroke:none;" d="M318 185L319 186L318 185z"/>
<path style="fill:#f4c09e; stroke:none;" d="M319 186L320 187L319 186z"/>
<path style="fill:#eea26f; stroke:none;" d="M321 187L322 188L321 187z"/>
<path style="fill:#ed9c66; stroke:none;" d="M127 188L127 195C128.059 192.466 128.059 190.534 127 188z"/>
<path style="fill:#e67529; stroke:none;" d="M323 188L324 189L323 188z"/>
<path style="fill:#f0ad80; stroke:none;" d="M324 189L325 190L324 189z"/>
<path style="fill:#e87e38; stroke:none;" d="M326 190L327 191L326 190z"/>
<path style="fill:#f1b186; stroke:none;" d="M327 191L328 192L327 191z"/>
<path style="fill:#e8833f; stroke:none;" d="M329 192L330 193L329 192z"/>
<path style="fill:#f3bd99; stroke:none;" d="M330 193L331 194L330 193z"/>
<path style="fill:#e8823e; stroke:none;" d="M332 194L333 195L332 194z"/>
<path style="fill:#e77b33; stroke:none;" d="M127 195L127 202C128.059 199.466 128.059 197.534 127 195z"/>
<path style="fill:#f3bd99; stroke:none;" d="M333 195L334 196L333 195z"/>
<path style="fill:#e6752a; stroke:none;" d="M335 196L336 197L335 196z"/>
<path style="fill:#f0ad80; stroke:none;" d="M336 197L337 198L336 197z"/>
<path style="fill:#de7140; stroke:none;" d="M338 198L339 199L338 198z"/>
<path style="fill:#ec975e; stroke:none;" d="M339 199L340 200L339 199z"/>
<path style="fill:#f5c8aa; stroke:none;" d="M340 200L341 201L340 200z"/>
<path style="fill:#e77b33; stroke:none;" d="M342 201L343 202L342 201M128 202C129.769 202.779 131.036 202.912 133 203C131.231 202.221 129.964 202.088 128 202z"/>
<path style="fill:#eb9155; stroke:none;" d="M133 202C134.769 202.779 136.036 202.912 138 203C136.231 202.221 134.964 202.088 133 202z"/>
<path style="fill:#f0ac7e; stroke:none;" d="M138 202C139.248 202.685 139.548 202.749 141 203C139.752 202.315 139.452 202.251 138 202z"/>
<path style="fill:#f9dbc8; stroke:none;" d="M141 202C142.769 202.779 144.036 202.912 146 203C144.231 202.221 142.964 202.088 141 202z"/>
<path style="fill:#eea16e; stroke:none;" d="M343 202L344 203L343 202z"/>
<path style="fill:#e87f39; stroke:none;" d="M149 203C150.248 203.685 150.548 203.749 152 204C150.752 203.315 150.452 203.251 149 203z"/>
<path style="fill:#efa675; stroke:none;" d="M152.667 203.333C152.222 203.778 153.278 203.722 153.333 203.667C153.778 203.222 152.722 203.278 152.667 203.333z"/>
<path style="fill:#f4c19f; stroke:none;" d="M154 203C155.248 203.685 155.548 203.749 157 204C155.752 203.315 155.452 203.251 154 203z"/>
<path style="fill:#f6ccb0; stroke:none;" d="M344 203L345 204L344 203z"/>
<path style="fill:#e8823e; stroke:none;" d="M160.667 204.333C160.222 204.778 161.278 204.722 161.333 204.667C161.778 204.222 160.722 204.278 160.667 204.333z"/>
<path style="fill:#efa574; stroke:none;" d="M162 204C163.248 204.685 163.548 204.749 165 205C163.752 204.315 163.452 204.251 162 204z"/>
<path style="fill:#fae4d5; stroke:none;" d="M165.667 204.333C165.222 204.778 166.278 204.722 166.333 204.667C166.778 204.222 165.722 204.278 165.667 204.333z"/>
<path style="fill:#e8803a; stroke:none;" d="M346 204L347 205L346 204z"/>
<path style="fill:#5b7db8; stroke:none;" d="M168 205L169 206L168 205z"/>
<path style="fill:#ed9962; stroke:none;" d="M169 205C170.248 205.685 170.548 205.749 172 206C170.752 205.315 170.452 205.251 169 205z"/>
<path style="fill:#f9dfcd; stroke:none;" d="M172.667 205.333C172.222 205.778 173.278 205.722 173.333 205.667C173.778 205.222 172.722 205.278 172.667 205.333z"/>
<path style="fill:#efa777; stroke:none;" d="M347 205L348 206L347 205z"/>
<path style="fill:#ea8a4a; stroke:none;" d="M175.667 206.333C175.222 206.778 176.278 206.722 176.333 206.667C176.778 206.222 175.722 206.278 175.667 206.333z"/>
<path style="fill:#f3c09d; stroke:none;" d="M177.667 206.333C177.222 206.778 178.278 206.722 178.333 206.667C178.778 206.222 177.722 206.278 177.667 206.333z"/>
<path style="fill:#f6d0b6; stroke:none;" d="M348 206L349 207L348 206z"/>
<path style="fill:#5b7db8; stroke:none;" d="M181 207L182 208L181 207z"/>
<path style="fill:#f0ac7e; stroke:none;" d="M182 207C183.248 207.685 183.548 207.749 185 208C183.752 207.315 183.452 207.251 182 207z"/>
<path style="fill:#e77930; stroke:none;" d="M350 207L351 208L350 207z"/>
<path style="fill:#f0aa7c; stroke:none;" d="M187 208C188.248 208.685 188.548 208.749 190 209C188.752 208.315 188.452 208.251 187 208z"/>
<path style="fill:#ec965d; stroke:none;" d="M351 208L352 209L351 208z"/>
<path style="fill:#f0ad80; stroke:none;" d="M192 209C193.248 209.685 193.548 209.749 195 210C193.752 209.315 193.452 209.251 192 209z"/>
<path style="fill:#f4c3a2; stroke:none;" d="M352 209L353 210L352 209z"/>
<path style="fill:#ee9f6b; stroke:none;" d="M196 210C197.248 210.685 197.548 210.749 199 211C197.752 210.315 197.452 210.251 196 210z"/>
<path style="fill:#ec9961; stroke:none;" d="M200.667 211.333C200.222 211.778 201.278 211.722 201.333 211.667C201.778 211.222 200.722 211.278 200.667 211.333z"/>
<path style="fill:#f4c2a1; stroke:none;" d="M202 211L203 212L202 211z"/>
<path style="fill:#e8803a; stroke:none;" d="M355 211L356 212L355 211z"/>
<path style="fill:#ec975f; stroke:none;" d="M204.667 212.333C204.222 212.778 205.278 212.722 205.333 212.667C205.778 212.222 204.722 212.278 204.667 212.333z"/>
<path style="fill:#f4c19f; stroke:none;" d="M206 212L207 213L206 212z"/>
<path style="fill:#ec975f; stroke:none;" d="M356 212L357 213L356 212z"/>
<path style="fill:#ed9c66; stroke:none;" d="M208.667 213.333C208.222 213.778 209.278 213.722 209.333 213.667C209.778 213.222 208.722 213.278 208.667 213.333z"/>
<path style="fill:#f6ceb3; stroke:none;" d="M210 213L211 214L210 213z"/>
<path style="fill:#f3bd99; stroke:none;" d="M357 213L358 214L357 213z"/>
<path style="fill:#eb9257; stroke:none;" d="M212 214L213 215L212 214z"/>
<path style="fill:#f4c2a0; stroke:none;" d="M213 214L214 215L213 214z"/>
<path style="fill:#f6ceb4; stroke:none;" d="M358 214L359 215L358 214z"/>
<path style="fill:#e6762b; stroke:none;" d="M215 215L216 216L215 215z"/>
<path style="fill:#efa777; stroke:none;" d="M216 215L217 216L216 215z"/>
<path style="fill:#e6752a; stroke:none;" d="M360 215L361 216L360 215z"/>
<path style="fill:#ad768d; stroke:none;" d="M218 216L219 217L218 216z"/>
<path style="fill:#ed9c66; stroke:none;" d="M219 216L220 217L219 216z"/>
<path style="fill:#f6ceb3; stroke:none;" d="M220 216L221 217L220 216z"/>
<path style="fill:#ea8c4d; stroke:none;" d="M361 216L362 217L361 216z"/>
<path style="fill:#ed9e69; stroke:none;" d="M222 217L223 218L222 217z"/>
<path style="fill:#f8d6c0; stroke:none;" d="M223 217L224 218L223 217z"/>
<path style="fill:#ec9860; stroke:none;" d="M362 217L363 218L362 217z"/>
<path style="fill:#ec975e; stroke:none;" d="M225 218L226 219L225 218z"/>
<path style="fill:#f6ceb3; stroke:none;" d="M226 218L227 219L226 218z"/>
<path style="fill:#f2b891; stroke:none;" d="M363 218L364 219L363 218z"/>
<path style="fill:#efa878; stroke:none;" d="M227.667 219.333C227.222 219.778 228.278 219.722 228.333 219.667C228.778 219.222 227.722 219.278 227.667 219.333z"/>
<path style="fill:#f4c2a1; stroke:none;" d="M364 219L365 220L364 219z"/>
<path style="fill:#e57326; stroke:none;" d="M230 220L231 221L230 220z"/>
<path style="fill:#f0ad80; stroke:none;" d="M231 220L232 221L231 220z"/>
<path style="fill:#e98644; stroke:none;" d="M233 221L234 222L233 221z"/>
<path style="fill:#f4c3a2; stroke:none;" d="M234 221L235 222L234 221z"/>
<path style="fill:#e67327; stroke:none;" d="M367 221L368 222L367 221z"/>
<path style="fill:#efa574; stroke:none;" d="M236 222L237 223L236 222z"/>
<path style="fill:#e77b33; stroke:none;" d="M368 222L369 223L368 222M238 223L239 224L238 223z"/>
<path style="fill:#f3bd99; stroke:none;" d="M239 223L240 224L239 223z"/>
<path style="fill:#ea8a4a; stroke:none;" d="M369 223L370 224L369 223z"/>
<path style="fill:#ed9c66; stroke:none;" d="M241 224L242 225L241 224z"/>
<path style="fill:#ed9962; stroke:none;" d="M370 224L371 225L370 224z"/>
<path style="fill:#e98746; stroke:none;" d="M243 225L244 226L243 225z"/>
<path style="fill:#f6cbaf; stroke:none;" d="M244 225L245 226L244 225z"/>
<path style="fill:#ed9c66; stroke:none;" d="M371 225L372 226L371 225z"/>
<path style="fill:#f0ad80; stroke:none;" d="M246 226L247 227L246 226z"/>
<path style="fill:#f1b288; stroke:none;" d="M372 226L373 227L372 226z"/>
<path style="fill:#ed9c66; stroke:none;" d="M248 227L249 228L248 227z"/>
<path style="fill:#f4c2a0; stroke:none;" d="M373 227L374 228L373 227z"/>
<path style="fill:#eb9358; stroke:none;" d="M250 228L251 229L250 228z"/>
<path style="fill:#f4c4a4; stroke:none;" d="M374 228L375 229L374 228z"/>
<path style="fill:#e77a32; stroke:none;" d="M252 229L253 230L252 229z"/>
<path style="fill:#f5c8aa; stroke:none;" d="M253 229L254 230L253 229z"/>
<path style="fill:#f6d0b6; stroke:none;" d="M375 229L376 230L375 229z"/>
<path style="fill:#e6762c; stroke:none;" d="M254 230L255 231L254 230z"/>
<path style="fill:#f4c3a2; stroke:none;" d="M255 230L256 231L255 230z"/>
<path style="fill:#f8d6c0; stroke:none;" d="M376 230L377 231L376 230z"/>
<path style="fill:#bf757a; stroke:none;" d="M256 231L257 232L256 231z"/>
<path style="fill:#f2b891; stroke:none;" d="M257 231L258 232L257 231z"/>
<path style="fill:#bf757a; stroke:none;" d="M258 232L259 233L258 232z"/>
<path style="fill:#f4c09e; stroke:none;" d="M259 232L260 233L259 232z"/>
<path style="fill:#7e7bab; stroke:none;" d="M260 233L261 234L260 233z"/>
<path style="fill:#f3bd99; stroke:none;" d="M261 233L262 234L261 233z"/>
<path style="fill:#e6762b; stroke:none;" d="M262 234L263 235L262 234z"/>
<path style="fill:#f5c9ac; stroke:none;" d="M263 234L264 235L263 234z"/>
<path style="fill:#e77a31; stroke:none;" d="M264 235L265 236L264 235z"/>
<path style="fill:#f7d0b7; stroke:none;" d="M265 235L266 236L265 235z"/>
<path style="fill:#e77e37; stroke:none;" d="M266 236L267 237L266 236z"/>
<path style="fill:#f8d7c1; stroke:none;" d="M267 236L268 237L267 236z"/>
<path style="fill:#e98644; stroke:none;" d="M268 237L269 238L268 237z"/>
<path style="fill:#ed9c66; stroke:none;" d="M270 238L271 239L270 238z"/>
<path style="fill:#f2b892; stroke:none;" d="M272 239L273 240L272 239z"/>
<path style="fill:#e6762b; stroke:none;" d="M273 240L274 241L273 240z"/>
<path style="fill:#f7d3bb; stroke:none;" d="M274 240L275 241L274 240z"/>
<path style="fill:#e98543; stroke:none;" d="M275 241L276 242L275 241z"/>
<path style="fill:#efa97a; stroke:none;" d="M277 242L278 243L277 242z"/>
<path style="fill:#f6cbaf; stroke:none;" d="M388 242L389 243L388 242z"/>
<path style="fill:#f4c3a2; stroke:none;" d="M279 243L280 244L279 243z"/>
<path style="fill:#f6cbaf; stroke:none;" d="M389 243L390 244L389 243z"/>
<path style="fill:#ea8b4b; stroke:none;" d="M280 244L281 245L280 244z"/>
<path style="fill:#f4c3a2; stroke:none;" d="M390 244L391 245L390 244z"/>
<path style="fill:#f1b288; stroke:none;" d="M282 245L283 246L282 245z"/>
<path style="fill:#f3ba95; stroke:none;" d="M391 245L392 246L391 245z"/>
<path style="fill:#e87f39; stroke:none;" d="M283 246L284 247L283 246z"/>
<path style="fill:#f0ab7d; stroke:none;" d="M392 246L393 247L392 246z"/>
<path style="fill:#efa777; stroke:none;" d="M285 247L286 248L285 247z"/>
<path style="fill:#eea16e; stroke:none;" d="M393 247L394 248L393 247z"/>
<path style="fill:#e6762b; stroke:none;" d="M286 248L287 249L286 248z"/>
<path style="fill:#eb9053; stroke:none;" d="M394 248L395 249L394 248z"/>
<path style="fill:#ea8a4a; stroke:none;" d="M127 249C129.332 249.985 131.457 249.981 134 250C131.668 249.015 129.543 249.019 127 249z"/>
<path style="fill:#efa777; stroke:none;" d="M288 249L289 250L288 249z"/>
<path style="fill:#e8813c; stroke:none;" d="M395 249L396 250L395 249z"/>
<path style="fill:#e57123; stroke:none;" d="M126 250L126 261C127.431 257.59 127.431 253.41 126 250z"/>
<path style="fill:#ffffff; stroke:none;" d="M127 250L127 320C168.937 321.801 211.485 335.704 243 364.17C277.329 395.177 294 442.429 294 488L364 488C364 430.743 343.64 373.237 305.714 330C262.124 280.308 193.147 250.044 127 250z"/>
<path style="fill:#f9dbc8; stroke:none;" d="M136 250C137.248 250.685 137.548 250.749 139 251C137.752 250.315 137.452 250.251 136 250z"/>
<path style="fill:#f1b187; stroke:none;" d="M139 250C140.248 250.685 140.548 250.749 142 251C140.752 250.315 140.452 250.251 139 250z"/>
<path style="fill:#e87f39; stroke:none;" d="M142.667 250.333C142.222 250.778 143.278 250.722 143.333 250.667C143.778 250.222 142.722 250.278 142.667 250.333z"/>
<path style="fill:#e77b33; stroke:none;" d="M289 250L290 251L289 250z"/>
<path style="fill:#e57124; stroke:none;" d="M396 250L397 251L396 250z"/>
<path style="fill:#f5c8aa; stroke:none;" d="M147.667 251.333C147.222 251.778 148.278 251.722 148.333 251.667C148.778 251.222 147.722 251.278 147.667 251.333z"/>
<path style="fill:#ed9e69; stroke:none;" d="M149 251C150.248 251.685 150.549 251.749 152 252C150.752 251.315 150.452 251.251 149 251z"/>
<path style="fill:#e67327; stroke:none;" d="M152 251L153 252L152 251z"/>
<path style="fill:#efa777; stroke:none;" d="M291 251L292 252L291 251z"/>
<path style="fill:#7e7bab; stroke:none;" d="M397 251L398 252L397 251z"/>
<path style="fill:#f3bc98; stroke:none;" d="M155 252C156.248 252.685 156.548 252.749 158 253C156.752 252.315 156.452 252.251 155 252z"/>
<path style="fill:#e57225; stroke:none;" d="M158.667 252.333C158.222 252.778 159.278 252.722 159.333 252.667C159.778 252.222 158.722 252.278 158.667 252.333z"/>
<path style="fill:#e8833f; stroke:none;" d="M292 252L293 253L292 252z"/>
<path style="fill:#efa777; stroke:none;" d="M162 253C163.248 253.685 163.548 253.749 165 254C163.752 253.315 163.452 253.251 162 253z"/>
<path style="fill:#f2b891; stroke:none;" d="M294 253L295 254L294 253z"/>
<path style="fill:#f7d0b7; stroke:none;" d="M398 253L399 254L398 253z"/>
<path style="fill:#f1b38a; stroke:none;" d="M167 254C168.248 254.685 168.548 254.749 170 255C168.752 254.315 168.452 254.251 167 254z"/>
<path style="fill:#e57326; stroke:none;" d="M170 254L171 255L170 254z"/>
<path style="fill:#eb9053; stroke:none;" d="M295 254L296 255L295 254z"/>
<path style="fill:#f2b58d; stroke:none;" d="M399 254L400 255L399 254z"/>
<path style="fill:#f2b78f; stroke:none;" d="M172 255C173.248 255.685 173.548 255.749 175 256C173.752 255.315 173.452 255.251 172 255z"/>
<path style="fill:#e57123; stroke:none;" d="M175 255L176 256L175 255z"/>
<path style="fill:#f7d0b7; stroke:none;" d="M297 255L298 256L297 255z"/>
<path style="fill:#eea26f; stroke:none;" d="M400 255L401 256L400 255z"/>
<path style="fill:#efa97a; stroke:none;" d="M177 256C178.248 256.685 178.548 256.749 180 257C178.752 256.315 178.452 256.251 177 256z"/>
<path style="fill:#eea26f; stroke:none;" d="M298 256L299 257L298 256z"/>
<path style="fill:#ea8d4f; stroke:none;" d="M401 256L402 257L401 256z"/>
<path style="fill:#ec975e; stroke:none;" d="M182.667 257.333C182.222 257.778 183.278 257.722 183.333 257.667C183.778 257.222 182.722 257.278 182.667 257.333z"/>
<path style="fill:#7e7bab; stroke:none;" d="M184 257L185 258L184 257z"/>
<path style="fill:#e8823e; stroke:none;" d="M299 257L300 258L299 257z"/>
<path style="fill:#e77d36; stroke:none;" d="M402 257L403 258L402 257z"/>
<path style="fill:#f2b790; stroke:none;" d="M186 258L187 259L186 258z"/>
<path style="fill:#ea8b4b; stroke:none;" d="M187 258L188 259L187 258z"/>
<path style="fill:#f8d7c1; stroke:none;" d="M301 258L302 259L301 258z"/>
<path style="fill:#f1b288; stroke:none;" d="M190 259L191 260L190 259z"/>
<path style="fill:#e8813c; stroke:none;" d="M191 259L192 260L191 259z"/>
<path style="fill:#f1b187; stroke:none;" d="M302 259L303 260L302 259z"/>
<path style="fill:#f3bc98; stroke:none;" d="M193 260L194 261L193 260z"/>
<path style="fill:#ea8b4c; stroke:none;" d="M194 260L195 261L194 260z"/>
<path style="fill:#ea8a4a; stroke:none;" d="M303 260L304 261L303 260z"/>
<path style="fill:#f4c3a3; stroke:none;" d="M404 260L405 261L404 260z"/>
<path style="fill:#bf757a; stroke:none;" d="M126 261L126 265C126.71 263.241 126.71 262.759 126 261z"/>
<path style="fill:#efa777; stroke:none;" d="M197 261L198 262L197 261z"/>
<path style="fill:#e6752a; stroke:none;" d="M198 261L199 262L198 261z"/>
<path style="fill:#e57124; stroke:none;" d="M304 261L305 262L304 261z"/>
<path style="fill:#eea26f; stroke:none;" d="M405 261L406 262L405 261z"/>
<path style="fill:#efa878; stroke:none;" d="M200 262L201 263L200 262z"/>
<path style="fill:#e57225; stroke:none;" d="M201 262L202 263L201 262z"/>
<path style="fill:#f5c7a9; stroke:none;" d="M306 262L307 263L306 262z"/>
<path style="fill:#e98441; stroke:none;" d="M406 262L407 263L406 262z"/>
<path style="fill:#f0ac7f; stroke:none;" d="M203 263L204 264L203 263z"/>
<path style="fill:#e6762c; stroke:none;" d="M204 263L205 264L204 263z"/>
<path style="fill:#f0ac7f; stroke:none;" d="M307 263L308 264L307 263z"/>
<path style="fill:#f1b288; stroke:none;" d="M206 264L207 265L206 264z"/>
<path style="fill:#e57225; stroke:none;" d="M207 264L208 265L207 264z"/>
<path style="fill:#e98847; stroke:none;" d="M308 264L309 265L308 264z"/>
<path style="fill:#7e7bab; stroke:none;" d="M126 265L126 270C126.83 267.97 126.83 267.03 126 265z"/>
<path style="fill:#eea26f; stroke:none;" d="M209 265L210 266L209 265z"/>
<path style="fill:#e7782f; stroke:none;" d="M309 265L310 266L309 265z"/>
<path style="fill:#f3bf9c; stroke:none;" d="M408 265L409 266L408 265z"/>
<path style="fill:#f6ceb3; stroke:none;" d="M211 266L212 267L211 266z"/>
<path style="fill:#ec975e; stroke:none;" d="M212 266L213 267L212 266z"/>
<path style="fill:#f7d4bd; stroke:none;" d="M311 266L312 267L311 266z"/>
<path style="fill:#ed9e69; stroke:none;" d="M409 266L410 267L409 266z"/>
<path style="fill:#f4c3a2; stroke:none;" d="M214 267L215 268L214 267z"/>
<path style="fill:#e98644; stroke:none;" d="M215 267L216 268L215 267z"/>
<path style="fill:#f2b892; stroke:none;" d="M312 267L313 268L312 267z"/>
<path style="fill:#e8803a; stroke:none;" d="M410 267L411 268L410 267z"/>
<path style="fill:#eea16d; stroke:none;" d="M217 268L218 269L217 268z"/>
<path style="fill:#efa777; stroke:none;" d="M313 268L314 269L313 268z"/>
<path style="fill:#f5c8aa; stroke:none;" d="M219 269L220 270L219 269z"/>
<path style="fill:#e98644; stroke:none;" d="M220 269L221 270L220 269z"/>
<path style="fill:#ea8e50; stroke:none;" d="M314 269L315 270L314 269z"/>
<path style="fill:#f7d3bb; stroke:none;" d="M411 269L412 270L411 269z"/>
<path style="fill:#eb9459; stroke:none;" d="M222 270L223 271L222 270z"/>
<path style="fill:#e77e37; stroke:none;" d="M315 270L316 271L315 270z"/>
<path style="fill:#f0ab7d; stroke:none;" d="M412 270L413 271L412 270z"/>
<path style="fill:#f2b891; stroke:none;" d="M224 271L225 272L224 271z"/>
<path style="fill:#98789d; stroke:none;" d="M225 271L226 272L225 271z"/>
<path style="fill:#de7140; stroke:none;" d="M316 271L317 272L316 271z"/>
<path style="fill:#e98948; stroke:none;" d="M413 271L414 272L413 271z"/>
<path style="fill:#f4c09e; stroke:none;" d="M226 272L227 273L226 272z"/>
<path style="fill:#e7782f; stroke:none;" d="M227 272L228 273L227 272z"/>
<path style="fill:#ea8c4d; stroke:none;" d="M229 273L230 274L229 273z"/>
<path style="fill:#f6d0b6; stroke:none;" d="M319 273L320 274L319 273z"/>
<path style="fill:#f8d6c0; stroke:none;" d="M414 273L415 274L414 273z"/>
<path style="fill:#eb9155; stroke:none;" d="M231 274L232 275L231 274z"/>
<path style="fill:#f5c7a8; stroke:none;" d="M320 274L321 275L320 274z"/>
<path style="fill:#f0aa7c; stroke:none;" d="M415 274L416 275L415 274z"/>
<path style="fill:#ec975e; stroke:none;" d="M233 275L234 276L233 275z"/>
<path style="fill:#f3bd99; stroke:none;" d="M321 275L322 276L321 275z"/>
<path style="fill:#e8813c; stroke:none;" d="M416 275L417 276L416 275z"/>
<path style="fill:#ed9c66; stroke:none;" d="M235 276L236 277L235 276z"/>
<path style="fill:#f0ad80; stroke:none;" d="M322 276L323 277L322 276z"/>
<path style="fill:#eea26f; stroke:none;" d="M237 277L238 278L237 277z"/>
<path style="fill:#f0ac7f; stroke:none;" d="M323 277L324 278L323 277z"/>
<path style="fill:#f5c8aa; stroke:none;" d="M417 277L418 278L417 277z"/>
<path style="fill:#eb9155; stroke:none;" d="M239 278L240 279L239 278z"/>
<path style="fill:#efa574; stroke:none;" d="M324 278L325 279L324 278z"/>
<path style="fill:#ed9c66; stroke:none;" d="M418 278L419 279L418 278z"/>
<path style="fill:#eb9155; stroke:none;" d="M241 279L242 280L241 279z"/>
<path style="fill:#ed9b64; stroke:none;" d="M325 279L326 280L325 279z"/>
<path style="fill:#e6772d; stroke:none;" d="M419 279L420 280L419 279z"/>
<path style="fill:#e8803b; stroke:none;" d="M243 280L244 281L243 280z"/>
<path style="fill:#eb9459; stroke:none;" d="M326 280L327 281L326 280z"/>
<path style="fill:#f5c8aa; stroke:none;" d="M244 281L245 282L244 281z"/>
<path style="fill:#e57124; stroke:none;" d="M245 281L246 282L245 281z"/>
<path style="fill:#eb9256; stroke:none;" d="M327 281L328 282L327 281z"/>
<path style="fill:#f1b186; stroke:none;" d="M420 281L421 282L420 281z"/>
<path style="fill:#f3bd99; stroke:none;" d="M246 282L247 283L246 282z"/>
<path style="fill:#ec945a; stroke:none;" d="M328 282L329 283L328 282z"/>
<path style="fill:#e77e37; stroke:none;" d="M421 282L422 283L421 282z"/>
<path style="fill:#efa675; stroke:none;" d="M248 283L249 284L248 283z"/>
<path style="fill:#eb8f52; stroke:none;" d="M329 283L330 284L329 283z"/>
<path style="fill:#ea8a4a; stroke:none;" d="M250 284L251 285L250 284z"/>
<path style="fill:#ec965d; stroke:none;" d="M330 284L331 285L330 284z"/>
<path style="fill:#f3c09d; stroke:none;" d="M422 284L423 285L422 284z"/>
<path style="fill:#f6ceb3; stroke:none;" d="M251 285L252 286L251 285z"/>
<path style="fill:#ad768d; stroke:none;" d="M252 285L253 286L252 285z"/>
<path style="fill:#ee9f6b; stroke:none;" d="M331 285L332 286L331 285z"/>
<path style="fill:#ea8a4a; stroke:none;" d="M423 285L424 286L423 285z"/>
<path style="fill:#f0ad80; stroke:none;" d="M253 286L254 287L253 286z"/>
<path style="fill:#ed9b64; stroke:none;" d="M332 286L333 287L332 286z"/>
<path style="fill:#e98543; stroke:none;" d="M255 287L256 288L255 287z"/>
<path style="fill:#efaa7b; stroke:none;" d="M333 287L334 288L333 287z"/>
<path style="fill:#f3be9b; stroke:none;" d="M424 287L425 288L424 287z"/>
<path style="fill:#f4c3a2; stroke:none;" d="M256 288L257 289L256 288z"/>
<path style="fill:#f1b186; stroke:none;" d="M334 288L335 289L334 288z"/>
<path style="fill:#ea8d4f; stroke:none;" d="M425 288L426 289L425 288z"/>
<path style="fill:#ec955b; stroke:none;" d="M258 289L259 290L258 289z"/>
<path style="fill:#f3be9a; stroke:none;" d="M335 289L336 290L335 289z"/>
<path style="fill:#f7d2ba; stroke:none;" d="M259 290L260 291L259 290z"/>
<path style="fill:#7e7bab; stroke:none;" d="M260 290L261 291L260 290z"/>
<path style="fill:#f5c8aa; stroke:none;" d="M336 290L337 291L336 290z"/>
<path style="fill:#f3be9a; stroke:none;" d="M426 290L427 291L426 290z"/>
<path style="fill:#ed9c66; stroke:none;" d="M261 291L262 292L261 291z"/>
<path style="fill:#f7d2b9; stroke:none;" d="M337 291L338 292L337 291z"/>
<path style="fill:#e98746; stroke:none;" d="M427 291L428 292L427 291z"/>
<path style="fill:#f6cfb5; stroke:none;" d="M262 292L263 293L262 292z"/>
<path style="fill:#eb9053; stroke:none;" d="M264 293L265 294L264 293z"/>
<path style="fill:#f1b48b; stroke:none;" d="M428 293L429 294L428 293z"/>
<path style="fill:#f5c8aa; stroke:none;" d="M265 294L266 295L265 294z"/>
<path style="fill:#e57124; stroke:none;" d="M339 294L340 295L339 294z"/>
<path style="fill:#e77a32; stroke:none;" d="M429 294L430 295L429 294z"/>
<path style="fill:#ea8c4d; stroke:none;" d="M267 295L268 296L267 295z"/>
<path style="fill:#e77d36; stroke:none;" d="M340 295L341 296L340 295z"/>
<path style="fill:#f1b38a; stroke:none;" d="M268 296L269 297L268 296z"/>
<path style="fill:#ea8c4d; stroke:none;" d="M341 296L342 297L341 296z"/>
<path style="fill:#eea16e; stroke:none;" d="M430 296L431 297L430 296z"/>
<path style="fill:#e57123; stroke:none;" d="M270 297L271 298L270 297z"/>
<path style="fill:#efa574; stroke:none;" d="M342 297L343 298L342 297z"/>
<path style="fill:#eb9054; stroke:none;" d="M271 298L272 299L271 298z"/>
<path style="fill:#f2b891; stroke:none;" d="M343 298L344 299L343 298z"/>
<path style="fill:#f6cbaf; stroke:none;" d="M431 298L432 299L431 298z"/>
<path style="fill:#f2b891; stroke:none;" d="M272 299L273 300L272 299z"/>
<path style="fill:#f7d4bd; stroke:none;" d="M344 299L345 300L344 299z"/>
<path style="fill:#ea8a4a; stroke:none;" d="M432 299L433 300L432 299z"/>
<path style="fill:#bf757a; stroke:none;" d="M274 300L275 301L274 300z"/>
<path style="fill:#ea8949; stroke:none;" d="M275 301L276 302L275 301z"/>
<path style="fill:#cf7262; stroke:none;" d="M345 301L346 302L345 301z"/>
<path style="fill:#f0ad80; stroke:none;" d="M433 301L434 302L433 301z"/>
<path style="fill:#f2b891; stroke:none;" d="M276 302L277 303L276 302z"/>
<path style="fill:#e8813c; stroke:none;" d="M346 302L347 303L346 302z"/>
<path style="fill:#de7140; stroke:none;" d="M434 302L435 303L434 302z"/>
<path style="fill:#f6cdb1; stroke:none;" d="M277 303L278 304L277 303z"/>
<path style="fill:#eea26f; stroke:none;" d="M347 303L348 304L347 303z"/>
<path style="fill:#f5caad; stroke:none;" d="M434 303L435 304L434 303z"/>
<path style="fill:#e67327; stroke:none;" d="M279 304L280 305L279 304z"/>
<path style="fill:#f3c09d; stroke:none;" d="M348 304L349 305L348 304z"/>
<path style="fill:#ea8b4c; stroke:none;" d="M435 304L436 305L435 304z"/>
<path style="fill:#e98340; stroke:none;" d="M280 305L281 306L280 305z"/>
<path style="fill:#ec9860; stroke:none;" d="M281 306L282 307L281 306z"/>
<path style="fill:#e57124; stroke:none;" d="M349 306L350 307L349 306z"/>
<path style="fill:#efa676; stroke:none;" d="M436 306L437 307L436 306z"/>
<path style="fill:#f2b891; stroke:none;" d="M282 307L283 308L282 307z"/>
<path style="fill:#e98644; stroke:none;" d="M350 307L351 308L350 307z"/>
<path style="fill:#f6cfb5; stroke:none;" d="M283 308L284 309L283 308z"/>
<path style="fill:#f0af83; stroke:none;" d="M351 308L352 309L351 308z"/>
<path style="fill:#f3bc97; stroke:none;" d="M437 308L438 309L437 308z"/>
<path style="fill:#98789d; stroke:none;" d="M285 309L286 310L285 309z"/>
<path style="fill:#f7d0b7; stroke:none;" d="M352 309L353 310L352 309z"/>
<path style="fill:#e77a32; stroke:none;" d="M438 309L439 310L438 309z"/>
<path style="fill:#e67529; stroke:none;" d="M286 310L287 311L286 310z"/>
<path style="fill:#f7d5be; stroke:none;" d="M438 310L439 311L438 310z"/>
<path style="fill:#e8813c; stroke:none;" d="M287 311L288 312L287 311z"/>
<path style="fill:#e77e37; stroke:none;" d="M353 311L354 312L353 311z"/>
<path style="fill:#ea8b4c; stroke:none;" d="M439 311L440 312L439 311z"/>
<path style="fill:#ea8949; stroke:none;" d="M288 312L289 313L288 312z"/>
<path style="fill:#efa574; stroke:none;" d="M354 312L355 313L354 312z"/>
<path style="fill:#ec975f; stroke:none;" d="M289 313L290 314L289 313z"/>
<path style="fill:#f6d0b6; stroke:none;" d="M355 313L356 314L355 313z"/>
<path style="fill:#ed9d67; stroke:none;" d="M440 313L441 314L440 313z"/>
<path style="fill:#eea270; stroke:none;" d="M290 314L291 315L290 314z"/>
<path style="fill:#f1b288; stroke:none;" d="M291 315L292 316L291 315z"/>
<path style="fill:#e8813d; stroke:none;" d="M356 315L357 316L356 315z"/>
<path style="fill:#f0ac7f; stroke:none;" d="M441 315L442 316L441 315z"/>
<path style="fill:#f2b993; stroke:none;" d="M292 316L293 317L292 316z"/>
<path style="fill:#f0af83; stroke:none;" d="M357 316L358 317L357 316z"/>
<path style="fill:#f3bc98; stroke:none;" d="M293 317L294 318L293 317z"/>
<path style="fill:#f2b78f; stroke:none;" d="M442 317L443 318L442 317z"/>
<path style="fill:#f5c9ab; stroke:none;" d="M294 318L295 319L294 318z"/>
<path style="fill:#cf7262; stroke:none;" d="M358 318L359 319L358 318z"/>
<path style="fill:#de7140; stroke:none;" d="M443 318L444 319L443 318z"/>
<path style="fill:#f4c2a0; stroke:none;" d="M295 319L296 320L295 319z"/>
<path style="fill:#ec9961; stroke:none;" d="M359 319L360 320L359 319z"/>
<path style="fill:#f3bf9c; stroke:none;" d="M443 319L444 320L443 319z"/>
<path style="fill:#f1b187; stroke:none;" d="M127 320C128.248 320.685 128.548 320.749 130 321C128.752 320.315 128.452 320.251 127 320z"/>
<path style="fill:#f6d0b6; stroke:none;" d="M130 320C131.248 320.685 131.548 320.749 133 321C131.752 320.315 131.452 320.251 130 320z"/>
<path style="fill:#f2b891; stroke:none;" d="M296 320L297 321L296 320z"/>
<path style="fill:#f6cdb2; stroke:none;" d="M360 320L361 321L360 320z"/>
<path style="fill:#e67428; stroke:none;" d="M444 320L445 321L444 320z"/>
<path style="fill:#e8813d; stroke:none;" d="M137 321C138.248 321.685 138.548 321.749 140 322C138.752 321.315 138.452 321.251 137 321z"/>
<path style="fill:#f1af84; stroke:none;" d="M140.667 321.333C140.222 321.778 141.278 321.722 141.333 321.667C141.778 321.222 140.722 321.278 140.667 321.333z"/>
<path style="fill:#f6cfb5; stroke:none;" d="M142 321C143.248 321.685 143.548 321.749 145 322C143.752 321.315 143.452 321.251 142 321z"/>
<path style="fill:#f1b38a; stroke:none;" d="M297 321L298 322L297 321z"/>
<path style="fill:#f5c9ac; stroke:none;" d="M444 321L445 322L444 321z"/>
<path style="fill:#ec975e; stroke:none;" d="M147.667 322.333C147.222 322.778 148.278 322.722 148.333 322.667C148.778 322.222 147.722 322.278 147.667 322.333z"/>
<path style="fill:#f4c3a3; stroke:none;" d="M149 322C150.248 322.685 150.548 322.749 152 323C150.752 322.315 150.452 322.251 149 322z"/>
<path style="fill:#f0af83; stroke:none;" d="M298 322L299 323L298 322z"/>
<path style="fill:#ea8d4f; stroke:none;" d="M361 322L362 323L361 322z"/>
<path style="fill:#e7782f; stroke:none;" d="M445 322L446 323L445 322z"/>
<path style="fill:#ec975e; stroke:none;" d="M154.667 323.333C154.222 323.778 155.278 323.722 155.333 323.667C155.778 323.222 154.722 323.278 154.667 323.333z"/>
<path style="fill:#f7d3bb; stroke:none;" d="M156.667 323.333C156.222 323.778 157.278 323.722 157.333 323.667C157.778 323.222 156.722 323.278 156.667 323.333z"/>
<path style="fill:#f1b58c; stroke:none;" d="M299 323L300 324L299 323z"/>
<path style="fill:#f4c3a3; stroke:none;" d="M362 323L363 324L362 323z"/>
<path style="fill:#f5caad; stroke:none;" d="M445 323L446 324L445 323z"/>
<path style="fill:#eb9459; stroke:none;" d="M159.667 324.333C159.222 324.778 160.278 324.722 160.333 324.667C160.778 324.222 159.722 324.278 159.667 324.333z"/>
<path style="fill:#f8d9c5; stroke:none;" d="M161.667 324.333C161.222 324.778 162.278 324.722 162.333 324.667C162.778 324.222 161.722 324.278 161.667 324.333z"/>
<path style="fill:#efa574; stroke:none;" d="M300 324L301 325L300 324z"/>
<path style="fill:#e7782f; stroke:none;" d="M446 324L447 325L446 324z"/>
<path style="fill:#ee9f6b; stroke:none;" d="M164.667 325.333C164.222 325.778 165.278 325.722 165.333 325.667C165.778 325.222 164.722 325.278 164.667 325.333z"/>
<path style="fill:#fbe6d9; stroke:none;" d="M166.667 325.333C166.222 325.778 167.278 325.722 167.333 325.667C167.778 325.222 166.722 325.278 166.667 325.333z"/>
<path style="fill:#eea16e; stroke:none;" d="M301 325L302 326L301 325z"/>
<path style="fill:#eb8e51; stroke:none;" d="M363 325L364 326L363 325z"/>
<path style="fill:#f5c7a9; stroke:none;" d="M446 325L447 326L446 325z"/>
<path style="fill:#eb8f52; stroke:none;" d="M169 326L170 327L169 326z"/>
<path style="fill:#f2ba94; stroke:none;" d="M170 326L171 327L170 326z"/>
<path style="fill:#ec955b; stroke:none;" d="M302 326L303 327L302 326z"/>
<path style="fill:#f4c5a5; stroke:none;" d="M364 326L365 327L364 326z"/>
<path style="fill:#e77930; stroke:none;" d="M447 326L448 327L447 326z"/>
<path style="fill:#f1b288; stroke:none;" d="M173.667 327.333C173.222 327.778 174.278 327.722 174.333 327.667C174.778 327.222 173.722 327.278 173.667 327.333z"/>
<path style="fill:#ea8d4f; stroke:none;" d="M303 327L304 328L303 327z"/>
<path style="fill:#f5cbae; stroke:none;" d="M447 327L448 328L447 327z"/>
<path style="fill:#e67428; stroke:none;" d="M176 328L177 329L176 328z"/>
<path style="fill:#efa574; stroke:none;" d="M177 328L178 329L177 328z"/>
<path style="fill:#e6782e; stroke:none;" d="M304 328L305 329L304 328z"/>
<path style="fill:#ec975e; stroke:none;" d="M365 328L366 329L365 328z"/>
<path style="fill:#e6762b; stroke:none;" d="M448 328L449 329L448 328z"/>
<path style="fill:#ea8c4d; stroke:none;" d="M180 329L181 330L180 329z"/>
<path style="fill:#f3bd99; stroke:none;" d="M181 329L182 330L181 329z"/>
<path style="fill:#e57225; stroke:none;" d="M305 329L306 330L305 329z"/>
<path style="fill:#f5cbae; stroke:none;" d="M366 329L367 330L366 329z"/>
<path style="fill:#f5c5a6; stroke:none;" d="M448 329L449 330L448 329z"/>
<path style="fill:#e98644; stroke:none;" d="M183 330L184 331L183 330z"/>
<path style="fill:#f3ba95; stroke:none;" d="M184 330L185 331L184 330z"/>
<path style="fill:#98789d; stroke:none;" d="M366 330L367 331L366 330z"/>
<path style="fill:#bf757a; stroke:none;" d="M449 330L450 331L449 330z"/>
<path style="fill:#e8813c; stroke:none;" d="M186 331L187 332L186 331z"/>
<path style="fill:#f2b891; stroke:none;" d="M187 331L188 332L187 331z"/>
<path style="fill:#eea06c; stroke:none;" d="M367 331L368 332L367 331z"/>
<path style="fill:#f3bc97; stroke:none;" d="M449 331L450 332L449 331z"/>
<path style="fill:#ea8c4d; stroke:none;" d="M189 332L190 333L189 332z"/>
<path style="fill:#f4c3a2; stroke:none;" d="M190 332L191 333L190 332z"/>
<path style="fill:#f6ceb3; stroke:none;" d="M307 332L308 333L307 332z"/>
<path style="fill:#eea472; stroke:none;" d="M192 333L193 334L192 333z"/>
<path style="fill:#f2b68e; stroke:none;" d="M308 333L309 334L308 333z"/>
<path style="fill:#e6782e; stroke:none;" d="M368 333L369 334L368 333z"/>
<path style="fill:#f1b389; stroke:none;" d="M450 333L451 334L450 333z"/>
<path style="fill:#e98543; stroke:none;" d="M194 334L195 335L194 334z"/>
<path style="fill:#f5c9ac; stroke:none;" d="M195 334L196 335L195 334z"/>
<path style="fill:#ed9f6a; stroke:none;" d="M309 334L310 335L309 334z"/>
<path style="fill:#f2b790; stroke:none;" d="M369 334L370 335L369 334z"/>
<path style="fill:#ed9c66; stroke:none;" d="M197 335L198 336L197 335z"/>
<path style="fill:#e98441; stroke:none;" d="M310 335L311 336L310 335z"/>
<path style="fill:#efa777; stroke:none;" d="M451 335L452 336L451 335z"/>
<path style="fill:#eb9053; stroke:none;" d="M199 336L200 337L199 336z"/>
<path style="fill:#ec965c; stroke:none;" d="M370 336L371 337L370 336z"/>
<path style="fill:#e77930; stroke:none;" d="M201 337L202 338L201 337z"/>
<path style="fill:#f4c3a2; stroke:none;" d="M202 337L203 338L202 337z"/>
<path style="fill:#f7d6bf; stroke:none;" d="M371 337L372 338L371 337z"/>
<path style="fill:#ec9961; stroke:none;" d="M452 337L453 338L452 337z"/>
<path style="fill:#bf757a; stroke:none;" d="M203 338L204 339L203 338z"/>
<path style="fill:#f2b891; stroke:none;" d="M204 338L205 339L204 338z"/>
<path style="fill:#f4c3a3; stroke:none;" d="M312 338L313 339L312 338z"/>
<path style="fill:#e6762b; stroke:none;" d="M371 338L372 339L371 338z"/>
<path style="fill:#f1b288; stroke:none;" d="M206 339L207 340L206 339z"/>
<path style="fill:#ed9a63; stroke:none;" d="M313 339L314 340L313 339z"/>
<path style="fill:#f2ba94; stroke:none;" d="M372 339L373 340L372 339z"/>
<path style="fill:#e98746; stroke:none;" d="M453 339L454 340L453 339z"/>
<path style="fill:#f0ad80; stroke:none;" d="M208 340L209 341L208 340z"/>
<path style="fill:#e8823e; stroke:none;" d="M314 340L315 341L314 340z"/>
<path style="fill:#f7d0b7; stroke:none;" d="M453 340L454 341L453 340z"/>
<path style="fill:#f1b288; stroke:none;" d="M210 341L211 342L210 341z"/>
<path style="fill:#ed9e69; stroke:none;" d="M373 341L374 342L373 341z"/>
<path style="fill:#e6782e; stroke:none;" d="M454 341L455 342L454 341z"/>
<path style="fill:#e57124; stroke:none;" d="M211 342L212 343L211 342z"/>
<path style="fill:#f4c4a4; stroke:none;" d="M212 342L213 343L212 342z"/>
<path style="fill:#f8d7c1; stroke:none;" d="M315 342L316 343L315 342z"/>
<path style="fill:#f3bc98; stroke:none;" d="M454 342L455 343L454 342z"/>
<path style="fill:#e77930; stroke:none;" d="M213 343L214 344L213 343z"/>
<path style="fill:#f8d6c0; stroke:none;" d="M214 343L215 344L214 343z"/>
<path style="fill:#f1b186; stroke:none;" d="M316 343L317 344L316 343z"/>
<path style="fill:#ea8c4e; stroke:none;" d="M374 343L375 344L374 343z"/>
<path style="fill:#e98644; stroke:none;" d="M215 344L216 345L215 344z"/>
<path style="fill:#ea8b4b; stroke:none;" d="M317 344L318 345L317 344z"/>
<path style="fill:#f7d2ba; stroke:none;" d="M375 344L376 345L375 344z"/>
<path style="fill:#efa878; stroke:none;" d="M455 344L456 345L455 344z"/>
<path style="fill:#ed9c66; stroke:none;" d="M217 345L218 346L217 345z"/>
<path style="fill:#e7782f; stroke:none;" d="M375 345L376 346L375 345z"/>
<path style="fill:#f4c19f; stroke:none;" d="M219 346L220 347L219 346z"/>
<path style="fill:#f6cbaf; stroke:none;" d="M318 346L319 347L318 346z"/>
<path style="fill:#f4c2a0; stroke:none;" d="M376 346L377 347L376 346z"/>
<path style="fill:#ea8c4e; stroke:none;" d="M456 346L457 347L456 346z"/>
<path style="fill:#e77a31; stroke:none;" d="M220 347L221 348L220 347z"/>
<path style="fill:#eea26f; stroke:none;" d="M319 347L320 348L319 347z"/>
<path style="fill:#ad768d; stroke:none;" d="M376 347L377 348L376 347z"/>
<path style="fill:#f6cfb5; stroke:none;" d="M456 347L457 348L456 347z"/>
<path style="fill:#efa777; stroke:none;" d="M222 348L223 349L222 348z"/>
<path style="fill:#e77930; stroke:none;" d="M320 348L321 349L320 348z"/>
<path style="fill:#f1b58c; stroke:none;" d="M377 348L378 349L377 348z"/>
<path style="fill:#e67327; stroke:none;" d="M457 348L458 349L457 348z"/>
<path style="fill:#e6762b; stroke:none;" d="M223 349L224 350L223 349z"/>
<path style="fill:#f2b78f; stroke:none;" d="M457 349L458 350L457 349z"/>
<path style="fill:#ed9c66; stroke:none;" d="M225 350L226 351L225 350z"/>
<path style="fill:#f3bd99; stroke:none;" d="M321 350L322 351L321 350z"/>
<path style="fill:#f1b38a; stroke:none;" d="M378 350L379 351L378 350z"/>
<path style="fill:#e67529; stroke:none;" d="M226 351L227 352L226 351z"/>
<path style="fill:#ea8b4c; stroke:none;" d="M322 351L323 352L322 351z"/>
<path style="fill:#ed9962; stroke:none;" d="M458 351L459 352L458 351z"/>
<path style="fill:#f0ad80; stroke:none;" d="M228 352L229 353L228 352M379 352L380 353L379 352z"/>
<path style="fill:#e87e38; stroke:none;" d="M229 353L230 354L229 353z"/>
<path style="fill:#f4c5a5; stroke:none;" d="M323 353L324 354L323 353z"/>
<path style="fill:#e6762c; stroke:none;" d="M459 353L460 354L459 353z"/>
<path style="fill:#f4c3a3; stroke:none;" d="M231 354L232 355L231 354z"/>
<path style="fill:#ea8e50; stroke:none;" d="M324 354L325 355L324 354z"/>
<path style="fill:#efa879; stroke:none;" d="M380 354L381 355L380 354z"/>
<path style="fill:#f2b78f; stroke:none;" d="M459 354L460 355L459 354z"/>
<path style="fill:#ed9d67; stroke:none;" d="M232 355L233 356L232 355z"/>
<path style="fill:#e6782e; stroke:none;" d="M233 356L234 357L233 356z"/>
<path style="fill:#f3be9a; stroke:none;" d="M325 356L326 357L325 356z"/>
<path style="fill:#efa473; stroke:none;" d="M381 356L382 357L381 356z"/>
<path style="fill:#eb9358; stroke:none;" d="M460 356L461 357L460 356z"/>
<path style="fill:#f7d2b9; stroke:none;" d="M235 357L236 358L235 357z"/>
<path style="fill:#e98745; stroke:none;" d="M326 357L327 358L326 357z"/>
<path style="fill:#f7d4bc; stroke:none;" d="M460 357L461 358L460 357z"/>
<path style="fill:#f1b288; stroke:none;" d="M236 358L237 359L236 358z"/>
<path style="fill:#eea371; stroke:none;" d="M382 358L383 359L382 358z"/>
<path style="fill:#f0aa7c; stroke:none;" d="M461.333 358.667C461.278 358.722 461.222 359.778 461.667 359.333C461.722 359.278 461.778 358.222 461.333 358.667z"/>
<path style="fill:#eb9257; stroke:none;" d="M237 359L238 360L237 359z"/>
<path style="fill:#f2b78f; stroke:none;" d="M327 359L328 360L327 359z"/>
<path style="fill:#e77c35; stroke:none;" d="M238 360L239 361L238 360z"/>
<path style="fill:#e77c34; stroke:none;" d="M328 360L329 361L328 360z"/>
<path style="fill:#efa675; stroke:none;" d="M383 360L384 361L383 360z"/>
<path style="fill:#de7140; stroke:none;" d="M239 361L240 362L239 361z"/>
<path style="fill:#e8803b; stroke:none;" d="M462 361L463 362L462 361z"/>
<path style="fill:#f8d7c1; stroke:none;" d="M241 362L242 363L241 362z"/>
<path style="fill:#ed9f6a; stroke:none;" d="M329 362L330 363L329 362z"/>
<path style="fill:#f1b38a; stroke:none;" d="M384 362L385 363L384 362z"/>
<path style="fill:#f3bc98; stroke:none;" d="M462 362L463 363L462 362z"/>
<path style="fill:#f5c7a8; stroke:none;" d="M242 363L243 364L242 363z"/>
<path style="fill:#f1b38a; stroke:none;" d="M243 364L244 365L243 364z"/>
<path style="fill:#f3ba95; stroke:none;" d="M330 364L331 365L330 364z"/>
<path style="fill:#f4c2a0; stroke:none;" d="M385 364L386 365L385 364z"/>
<path style="fill:#eb9054; stroke:none;" d="M463 364L464 365L463 364z"/>
<path style="fill:#f0ae82; stroke:none;" d="M244 365L245 366L244 365z"/>
<path style="fill:#e6762b; stroke:none;" d="M331 365L332 366L331 365z"/>
<path style="fill:#e6762c; stroke:none;" d="M385 365L386 366L385 365z"/>
<path style="fill:#f6cdb1; stroke:none;" d="M463 365L464 366L463 365z"/>
<path style="fill:#eea472; stroke:none;" d="M245 366L246 367L245 366z"/>
<path style="fill:#f7d2b9; stroke:none;" d="M386 366L387 367L386 366z"/>
<path style="fill:#ed9d68; stroke:none;" d="M246 367L247 368L246 367z"/>
<path style="fill:#eb9358; stroke:none;" d="M332 367L333 368L332 367z"/>
<path style="fill:#e98441; stroke:none;" d="M386 367L387 368L386 367z"/>
<path style="fill:#ed9b65; stroke:none;" d="M464 367L465 368L464 367z"/>
<path style="fill:#ed9c66; stroke:none;" d="M247 368L248 369L247 368z"/>
<path style="fill:#f7d4bc; stroke:none;" d="M464 368L465 369L464 368z"/>
<path style="fill:#ed9b65; stroke:none;" d="M248 369L249 370L248 369z"/>
<path style="fill:#f0af83; stroke:none;" d="M333 369L334 370L333 369z"/>
<path style="fill:#eb9256; stroke:none;" d="M387 369L388 370L387 369z"/>
<path style="fill:#eea16d; stroke:none;" d="M249 370L250 371L249 370z"/>
<path style="fill:#5b7db8; stroke:none;" d="M334 370L335 371L334 370z"/>
<path style="fill:#ed9f6a; stroke:none;" d="M465 370L466 371L465 370M250 371L251 372L250 371z"/>
<path style="fill:#f4c09e; stroke:none;" d="M334 371L335 372L334 371z"/>
<path style="fill:#efa473; stroke:none;" d="M388 371L389 372L388 371z"/>
<path style="fill:#f7d5be; stroke:none;" d="M465 371L466 372L465 371z"/>
<path style="fill:#f1b288; stroke:none;" d="M251 372L252 373L251 372z"/>
<path style="fill:#e67529; stroke:none;" d="M335 372L336 373L335 372z"/>
<path style="fill:#f3bf9c; stroke:none;" d="M252 373L253 374L252 373z"/>
<path style="fill:#f5c7a8; stroke:none;" d="M335 373L336 374L335 373z"/>
<path style="fill:#f4c09e; stroke:none;" d="M389 373L390 374L389 373z"/>
<path style="fill:#eea270; stroke:none;" d="M466 373L467 374L466 373z"/>
<path style="fill:#f5caad; stroke:none;" d="M253 374L254 375L253 374z"/>
<path style="fill:#e77a31; stroke:none;" d="M336 374L337 375L336 374z"/>
<path style="fill:#e8803a; stroke:none;" d="M389 374L390 375L389 374z"/>
<path style="fill:#f6ceb3; stroke:none;" d="M336 375L337 376L336 375z"/>
<path style="fill:#e77c35; stroke:none;" d="M337 376L338 377L337 376z"/>
<path style="fill:#ed9c66; stroke:none;" d="M390 376L391 377L390 376M467 376L468 377L467 376z"/>
<path style="fill:#bf757a; stroke:none;" d="M255 377L256 378L255 377z"/>
<path style="fill:#f7d4bd; stroke:none;" d="M337 377L338 378L337 377z"/>
<path style="fill:#f6d0b6; stroke:none;" d="M467 377L468 378L467 377z"/>
<path style="fill:#e8813d; stroke:none;" d="M256 378L257 379L256 378z"/>
<path style="fill:#e98543; stroke:none;" d="M338 378L339 379L338 378z"/>
<path style="fill:#f3ba95; stroke:none;" d="M391 378L392 379L391 378z"/>
<path style="fill:#eea06c; stroke:none;" d="M257 379L258 380L257 379z"/>
<path style="fill:#e6752a; stroke:none;" d="M391 379L392 380L391 379z"/>
<path style="fill:#eb9358; stroke:none;" d="M468 379L469 380L468 379z"/>
<path style="fill:#f4c2a0; stroke:none;" d="M258 380L259 381L258 380z"/>
<path style="fill:#e98745; stroke:none;" d="M339 380L340 381L339 380z"/>
<path style="fill:#f5c7a8; stroke:none;" d="M468 380L469 381L468 380z"/>
<path style="fill:#f7d6bf; stroke:none;" d="M259 381L260 382L259 381z"/>
<path style="fill:#f8d6c0; stroke:none;" d="M339 381L340 382L339 381z"/>
<path style="fill:#ec965d; stroke:none;" d="M392 381L393 382L392 381z"/>
<path style="fill:#e77c34; stroke:none;" d="M340 382L341 383L340 382z"/>
<path style="fill:#e98644; stroke:none;" d="M469 382L470 383L469 382z"/>
<path style="fill:#e8813c; stroke:none;" d="M260 383L261 384L260 383z"/>
<path style="fill:#f5cbae; stroke:none;" d="M340 383L341 384L340 383z"/>
<path style="fill:#f2b993; stroke:none;" d="M393 383L394 384L393 383z"/>
<path style="fill:#f2b68e; stroke:none;" d="M469 383L470 384L469 383z"/>
<path style="fill:#f0ac7e; stroke:none;" d="M261 384L262 385L261 384z"/>
<path style="fill:#e6752a; stroke:none;" d="M341 384L342 385L341 384z"/>
<path style="fill:#e77c35; stroke:none;" d="M393 384L394 385L393 384z"/>
<path style="fill:#f7d4bc; stroke:none;" d="M262 385L263 386L262 385z"/>
<path style="fill:#f3bf9c; stroke:none;" d="M341 385L342 386L341 385z"/>
<path style="fill:#e57326; stroke:none;" d="M470 385L471 386L470 385z"/>
<path style="fill:#f0ab7d; stroke:none;" d="M394 386L395 387L394 386z"/>
<path style="fill:#eea270; stroke:none;" d="M470 386L471 387L470 386z"/>
<path style="fill:#ea8949; stroke:none;" d="M263 387L264 388L263 387z"/>
<path style="fill:#f1b389; stroke:none;" d="M342 387L343 388L342 387z"/>
<path style="fill:#e57123; stroke:none;" d="M394 387L395 388L394 387z"/>
<path style="fill:#f7d2ba; stroke:none;" d="M470 387L471 388L470 387z"/>
<path style="fill:#f3bc97; stroke:none;" d="M264 388L265 389L264 388z"/>
<path style="fill:#98789d; stroke:none;" d="M165 389L166 390L165 389z"/>
<path style="fill:#eea26f; stroke:none;" d="M166.667 389.333C166.222 389.778 167.278 389.722 167.333 389.667C167.778 389.222 166.722 389.278 166.667 389.333z"/>
<path style="fill:#f7d2ba; stroke:none;" d="M168.667 389.333C168.222 389.778 169.278 389.722 169.333 389.667C169.778 389.222 168.722 389.278 168.667 389.333z"/>
<path style="fill:#ffffff; stroke:none;" d="M170 389.428C161.772 390.607 153.951 393.077 147 397.749C141.653 401.343 137.343 405.653 133.749 411C120.663 430.47 124.517 458.316 142.004 473.815C152.866 483.442 168.719 487.622 183 485.572C190.52 484.492 197.609 482.08 204 477.899C209.234 474.476 213.666 470.138 217.226 465C240.815 430.951 210.918 383.566 170 389.428z"/>
<path style="fill:#f1b186; stroke:none;" d="M182.667 389.333C182.222 389.778 183.278 389.722 183.333 389.667C183.778 389.222 182.722 389.278 182.667 389.333z"/>
<path style="fill:#e8803a; stroke:none;" d="M184.667 389.333C184.222 389.778 185.278 389.722 185.333 389.667C185.778 389.222 184.722 389.278 184.667 389.333z"/>
<path style="fill:#efa777; stroke:none;" d="M343 389L344 390L343 389z"/>
<path style="fill:#eea16d; stroke:none;" d="M395 389L396 390L395 389z"/>
<path style="fill:#ea8c4d; stroke:none;" d="M471 389L472 390L471 389z"/>
<path style="fill:#e77b33; stroke:none;" d="M161 390L162 391L161 390z"/>
<path style="fill:#f6ceb3; stroke:none;" d="M162.667 390.333C162.222 390.778 163.278 390.722 163.333 390.667C163.778 390.222 162.722 390.278 162.667 390.333z"/>
<path style="fill:#f3bd99; stroke:none;" d="M188 390L189 391L188 390z"/>
<path style="fill:#eb9155; stroke:none;" d="M189 390L190 391L189 390z"/>
<path style="fill:#e98441; stroke:none;" d="M265 390L266 391L265 390z"/>
<path style="fill:#f3ba95; stroke:none;" d="M471 390L472 391L471 390z"/>
<path style="fill:#ad768d; stroke:none;" d="M158 391L159 392L158 391z"/>
<path style="fill:#efa97a; stroke:none;" d="M159 391L160 392L159 391z"/>
<path style="fill:#f6ccb0; stroke:none;" d="M191 391L192 392L191 391z"/>
<path style="fill:#eb9054; stroke:none;" d="M192 391L193 392L192 391z"/>
<path style="fill:#f2b892; stroke:none;" d="M266 391L267 392L266 391z"/>
<path style="fill:#eb9054; stroke:none;" d="M344 391L345 392L344 391z"/>
<path style="fill:#f6cdb2; stroke:none;" d="M396 391L397 392L396 391z"/>
<path style="fill:#ed9a63; stroke:none;" d="M156 392L157 393L156 392z"/>
<path style="fill:#f8d6c0; stroke:none;" d="M157 392L158 393L157 392z"/>
<path style="fill:#f3bf9c; stroke:none;" d="M194 392L195 393L194 392z"/>
<path style="fill:#e87f39; stroke:none;" d="M195 392L196 393L195 392z"/>
<path style="fill:#f7d4bd; stroke:none;" d="M344 392L345 393L344 392z"/>
<path style="fill:#eb9257; stroke:none;" d="M396 392L397 393L396 392z"/>
<path style="fill:#ed9962; stroke:none;" d="M472.333 392.667C472.278 392.722 472.222 393.778 472.667 393.333C472.722 393.278 472.778 392.222 472.333 392.667z"/>
<path style="fill:#f2b891; stroke:none;" d="M154 393L155 394L154 393z"/>
<path style="fill:#ec975e; stroke:none;" d="M197 393L198 394L197 393z"/>
<path style="fill:#e98441; stroke:none;" d="M267 393L268 394L267 393z"/>
<path style="fill:#e67327; stroke:none;" d="M345 393L346 394L345 393z"/>
<path style="fill:#f1b38a; stroke:none;" d="M152 394L153 395L152 394z"/>
<path style="fill:#eb9358; stroke:none;" d="M199 394L200 395L199 394z"/>
<path style="fill:#f3be9b; stroke:none;" d="M268 394L269 395L268 394z"/>
<path style="fill:#f2b78f; stroke:none;" d="M345 394L346 395L345 394z"/>
<path style="fill:#f4c19f; stroke:none;" d="M397 394L398 395L397 394z"/>
<path style="fill:#f4c5a5; stroke:none;" d="M472 394L473 395L472 394z"/>
<path style="fill:#f0ad80; stroke:none;" d="M150 395L151 396L150 395z"/>
<path style="fill:#e98847; stroke:none;" d="M201 395L202 396L201 395z"/>
<path style="fill:#ea8b4b; stroke:none;" d="M397 395L398 396L397 395z"/>
<path style="fill:#ec975e; stroke:none;" d="M148 396L149 397L148 396z"/>
<path style="fill:#f6ceb3; stroke:none;" d="M202 396L203 397L202 396z"/>
<path style="fill:#de7140; stroke:none;" d="M203 396L204 397L203 396z"/>
<path style="fill:#ec975f; stroke:none;" d="M269 396L270 397L269 396z"/>
<path style="fill:#ed9962; stroke:none;" d="M346 396L347 397L346 396z"/>
<path style="fill:#e6782e; stroke:none;" d="M473 396L474 397L473 396z"/>
<path style="fill:#f5c9ac; stroke:none;" d="M147 397L148 398L147 397z"/>
<path style="fill:#ec9961; stroke:none;" d="M204 397L205 398L204 397z"/>
<path style="fill:#f5c9ac; stroke:none;" d="M398 397L399 398L398 397z"/>
<path style="fill:#eea26f; stroke:none;" d="M473 397L474 398L473 397z"/>
<path style="fill:#e98745; stroke:none;" d="M145 398L146 399L145 398z"/>
<path style="fill:#f6cbaf; stroke:none;" d="M205 398L206 399L205 398z"/>
<path style="fill:#e87e38; stroke:none;" d="M270 398L271 399L270 398z"/>
<path style="fill:#e77c34; stroke:none;" d="M347 398L348 399L347 398z"/>
<path style="fill:#ec945a; stroke:none;" d="M398 398L399 399L398 398z"/>
<path style="fill:#f0ad80; stroke:none;" d="M144 399L145 400L144 399z"/>
<path style="fill:#e8803a; stroke:none;" d="M207 399L208 400L207 399z"/>
<path style="fill:#f4c3a3; stroke:none;" d="M271 399L272 400L271 399z"/>
<path style="fill:#f3c09d; stroke:none;" d="M347 399L348 400L347 399z"/>
<path style="fill:#f5c8aa; stroke:none;" d="M143 400L144 401L143 400z"/>
<path style="fill:#eb9053; stroke:none;" d="M208 400L209 401L208 400z"/>
<path style="fill:#98789d; stroke:none;" d="M271 400L272 401L271 400z"/>
<path style="fill:#f7d3bb; stroke:none;" d="M399 400L400 401L399 400z"/>
<path style="fill:#e7782f; stroke:none;" d="M474 400L475 401L474 400z"/>
<path style="fill:#f0ad80; stroke:none;" d="M209 401L210 402L209 401z"/>
<path style="fill:#f0aa7c; stroke:none;" d="M272 401L273 402L272 401z"/>
<path style="fill:#ed9962; stroke:none;" d="M348 401L349 402L348 401z"/>
<path style="fill:#eea06c; stroke:none;" d="M399 401L400 402L399 401z"/>
<path style="fill:#eea16e; stroke:none;" d="M474 401L475 402L474 401z"/>
<path style="fill:#e67327; stroke:none;" d="M140 402L141 403L140 402z"/>
<path style="fill:#f3c09d; stroke:none;" d="M210 402L211 403L210 402z"/>
<path style="fill:#f7d2ba; stroke:none;" d="M348 402L349 403L348 402z"/>
<path style="fill:#f5c9ac; stroke:none;" d="M474 402L475 403L474 402z"/>
<path style="fill:#e57123; stroke:none;" d="M139 403L140 404L139 403z"/>
<path style="fill:#f4c2a1; stroke:none;" d="M211 403L212 404L211 403z"/>
<path style="fill:#ed9b65; stroke:none;" d="M273 403L274 404L273 403z"/>
<path style="fill:#5b7db8; stroke:none;" d="M349 403L350 404L349 403z"/>
<path style="fill:#bf757a; stroke:none;" d="M138 404L139 405L138 404z"/>
<path style="fill:#f4c2a0; stroke:none;" d="M212 404L213 405L212 404z"/>
<path style="fill:#efa675; stroke:none;" d="M349 404L350 405L349 404z"/>
<path style="fill:#f0ab7d; stroke:none;" d="M400 404L401 405L400 404z"/>
<path style="fill:#ed9b65; stroke:none;" d="M475.333 404.667C475.278 404.722 475.222 405.778 475.667 405.333C475.722 405.278 475.778 404.222 475.333 404.667z"/>
<path style="fill:#f2b891; stroke:none;" d="M213 405L214 406L213 405z"/>
<path style="fill:#ec975f; stroke:none;" d="M274 405L275 406L274 405z"/>
<path style="fill:#e77930; stroke:none;" d="M400 405L401 406L400 405z"/>
<path style="fill:#eea270; stroke:none;" d="M214 406L215 407L214 406z"/>
<path style="fill:#e6772d; stroke:none;" d="M350 406L351 407L350 406z"/>
<path style="fill:#fae6d8; stroke:none;" d="M475.333 406.667C475.278 406.722 475.222 407.778 475.667 407.333C475.722 407.278 475.778 406.222 475.333 406.667z"/>
<path style="fill:#f6ccb0; stroke:none;" d="M136 407L137 408L136 407z"/>
<path style="fill:#ea8949; stroke:none;" d="M215 407L216 408L215 407z"/>
<path style="fill:#ec945a; stroke:none;" d="M275 407L276 408L275 407z"/>
<path style="fill:#f1b187; stroke:none;" d="M350 407L351 408L350 407z"/>
<path style="fill:#f3bb96; stroke:none;" d="M401 407L402 408L401 407z"/>
<path style="fill:#efa473; stroke:none;" d="M135 408L136 409L135 408z"/>
<path style="fill:#cf7262; stroke:none;" d="M216 408L217 409L216 408z"/>
<path style="fill:#ea8e50; stroke:none;" d="M401 408L402 409L401 408z"/>
<path style="fill:#e8823e; stroke:none;" d="M134 409L135 410L134 409z"/>
<path style="fill:#eb9459; stroke:none;" d="M276 409L277 410L276 409z"/>
<path style="fill:#e8813c; stroke:none;" d="M351 409L352 410L351 409z"/>
<path style="fill:#f0af83; stroke:none;" d="M476.333 409.667C476.278 409.722 476.222 410.778 476.667 410.333C476.722 410.278 476.778 409.222 476.333 409.667z"/>
<path style="fill:#f1b389; stroke:none;" d="M217 410L218 411L217 410z"/>
<path style="fill:#f3bc97; stroke:none;" d="M351 410L352 411L351 410z"/>
<path style="fill:#f3be9a; stroke:none;" d="M133 411L134 412L133 411z"/>
<path style="fill:#e87f39; stroke:none;" d="M218 411L219 412L218 411z"/>
<path style="fill:#eea16e; stroke:none;" d="M277 411L278 412L277 411z"/>
<path style="fill:#f0af83; stroke:none;" d="M402 411L403 412L402 411z"/>
<path style="fill:#e98441; stroke:none;" d="M132 412L133 413L132 412z"/>
<path style="fill:#e8813d; stroke:none;" d="M352 412L353 413L352 412z"/>
<path style="fill:#e8833f; stroke:none;" d="M402 412L403 413L402 412z"/>
<path style="fill:#efa574; stroke:none;" d="M219 413L220 414L219 413z"/>
<path style="fill:#f1b389; stroke:none;" d="M278 413L279 414L278 413z"/>
<path style="fill:#f1b48b; stroke:none;" d="M352 413L353 414L352 413z"/>
<path style="fill:#ec9860; stroke:none;" d="M477.333 413.667C477.278 413.722 477.222 414.778 477.667 414.333C477.722 414.278 477.778 413.222 477.333 413.667z"/>
<path style="fill:#eea371; stroke:none;" d="M131 414L132 415L131 414z"/>
<path style="fill:#f7d2b9; stroke:none;" d="M403 414L404 415L403 414z"/>
<path style="fill:#f2b68e; stroke:none;" d="M220 415L221 416L220 415z"/>
<path style="fill:#f4c5a5; stroke:none;" d="M279 415L280 416L279 415z"/>
<path style="fill:#e67529; stroke:none;" d="M353 415L354 416L353 415z"/>
<path style="fill:#efa473; stroke:none;" d="M403 415L404 416L403 415z"/>
<path style="fill:#f8d9c5; stroke:none;" d="M477.333 415.667C477.278 415.722 477.222 416.778 477.667 416.333C477.722 416.278 477.778 415.222 477.333 415.667z"/>
<path style="fill:#efa675; stroke:none;" d="M130 416L131 417L130 416z"/>
<path style="fill:#e77b33; stroke:none;" d="M279 416L280 417L279 416z"/>
<path style="fill:#efa878; stroke:none;" d="M353 416L354 417L353 416z"/>
<path style="fill:#e7782f; stroke:none;" d="M403 416L404 417L403 416z"/>
<path style="fill:#f2b58d; stroke:none;" d="M221 417L222 418L221 417z"/>
<path style="fill:#eea06c; stroke:none;" d="M129 418L130 419L129 418z"/>
<path style="fill:#ed9b65; stroke:none;" d="M280 418L281 419L280 418z"/>
<path style="fill:#f5c7a8; stroke:none;" d="M404 418L405 419L404 418z"/>
<path style="fill:#ec965d; stroke:none;" d="M478.333 418.667C478.278 418.722 478.222 419.778 478.667 419.333C478.722 419.278 478.778 418.222 478.333 418.667z"/>
<path style="fill:#eea26f; stroke:none;" d="M222 419L223 420L222 419z"/>
<path style="fill:#ed9b64; stroke:none;" d="M354 419L355 420L354 419z"/>
<path style="fill:#e77a32; stroke:none;" d="M404.333 419.667C404.278 419.722 404.222 420.778 404.667 420.333C404.722 420.278 404.778 419.222 404.333 419.667z"/>
<path style="fill:#e77c35; stroke:none;" d="M128 420L129 421L128 420z"/>
<path style="fill:#f4c3a2; stroke:none;" d="M281 420L282 421L281 420z"/>
<path style="fill:#f6ceb3; stroke:none;" d="M354 420L355 421L354 420z"/>
<path style="fill:#f8d7c1; stroke:none;" d="M478.333 420.667C478.278 420.722 478.222 421.778 478.667 421.333C478.722 421.278 478.778 420.222 478.333 420.667z"/>
<path style="fill:#f2ba94; stroke:none;" d="M128 421L129 422L128 421z"/>
<path style="fill:#e6782e; stroke:none;" d="M223 421L224 422L223 421z"/>
<path style="fill:#e98644; stroke:none;" d="M281 421L282 422L281 421z"/>
<path style="fill:#f1b58c; stroke:none;" d="M223 422L224 423L223 422z"/>
<path style="fill:#e98644; stroke:none;" d="M355 422L356 423L355 422z"/>
<path style="fill:#f1b288; stroke:none;" d="M405 422L405 425C405.696 423.446 405.696 423.554 405 422z"/>
<path style="fill:#e98948; stroke:none;" d="M127 423L128 424L127 423z"/>
<path style="fill:#f0ab7d; stroke:none;" d="M282 423L283 424L282 423z"/>
<path style="fill:#f1b186; stroke:none;" d="M355 423L356 424L355 423z"/>
<path style="fill:#98789d; stroke:none;" d="M479 423L480 424L479 423z"/>
<path style="fill:#f2b58d; stroke:none;" d="M127 424L128 425L127 424z"/>
<path style="fill:#e57326; stroke:none;" d="M224 424L225 425L224 424z"/>
<path style="fill:#5b7db8; stroke:none;" d="M282 424L283 425L282 424z"/>
<path style="fill:#efa676; stroke:none;" d="M479 424L479 427C479.696 425.446 479.696 425.554 479 424z"/>
<path style="fill:#ed9f6a; stroke:none;" d="M224 425L225 426L224 425z"/>
<path style="fill:#f5caad; stroke:none;" d="M224 426L225 427L224 426z"/>
<path style="fill:#eea16d; stroke:none;" d="M283 426L284 427L283 426z"/>
<path style="fill:#ea8c4d; stroke:none;" d="M356 426L357 427L356 426z"/>
<path style="fill:#f1b389; stroke:none;" d="M126.333 427.667C126.278 427.722 126.222 428.778 126.667 428.333C126.722 428.278 126.778 427.222 126.333 427.667z"/>
<path style="fill:#f2b78f; stroke:none;" d="M356 427L357 428L356 427z"/>
<path style="fill:#eea270; stroke:none;" d="M406 427L406 430C406.696 428.446 406.696 428.554 406 427z"/>
<path style="fill:#ea8b4b; stroke:none;" d="M225.333 428.667C225.278 428.722 225.222 429.778 225.667 429.333C225.722 429.278 225.778 428.222 225.333 428.667z"/>
<path style="fill:#fbe6d9; stroke:none;" d="M126.333 429.667C126.278 429.722 126.222 430.778 126.667 430.333C126.722 430.278 126.778 429.222 126.333 429.667z"/>
<path style="fill:#bf757a; stroke:none;" d="M284.333 429.667C284.278 429.722 284.222 430.778 284.667 430.333C284.722 430.278 284.778 429.222 284.333 429.667z"/>
<path style="fill:#ea8e50; stroke:none;" d="M480.333 429.667C480.278 429.722 480.222 430.778 480.667 430.333C480.722 430.278 480.778 429.222 480.333 429.667z"/>
<path style="fill:#f3be9a; stroke:none;" d="M225.333 430.667C225.278 430.722 225.222 431.778 225.667 431.333C225.722 431.278 225.778 430.222 225.333 430.667z"/>
<path style="fill:#eb9257; stroke:none;" d="M357 430L358 431L357 430z"/>
<path style="fill:#fae4d6; stroke:none;" d="M357.333 431.667C357.278 431.722 357.222 432.778 357.667 432.333C357.722 432.278 357.778 431.222 357.333 431.667z"/>
<path style="fill:#f4c2a1; stroke:none;" d="M407 431L407 434C407.696 432.446 407.696 432.554 407 431z"/>
<path style="fill:#f4c19f; stroke:none;" d="M480 431L480 434C480.696 432.446 480.696 432.554 480 431z"/>
<path style="fill:#ea8b4b; stroke:none;" d="M125 432L125 443C126.431 439.59 126.431 435.41 125 432z"/>
<path style="fill:#efaa7b; stroke:none;" d="M285 432L286 433L285 432z"/>
<path style="fill:#e6762c; stroke:none;" d="M285 433L286 434L285 433z"/>
<path style="fill:#f0aa7c; stroke:none;" d="M358 434L358 437C358.696 435.446 358.696 435.554 358 434z"/>
<path style="fill:#e98847; stroke:none;" d="M407 434L408 435L407 434z"/>
<path style="fill:#f4c19f; stroke:none;" d="M286 435L287 436L286 435z"/>
<path style="fill:#ec945a; stroke:none;" d="M286 436L287 437L286 436z"/>
<path style="fill:#ec9860; stroke:none;" d="M481.333 436.667C481.278 436.722 481.222 437.778 481.667 437.333C481.722 437.278 481.778 436.222 481.333 436.667z"/>
<path style="fill:#f2b892; stroke:none;" d="M408.333 437.667C408.278 437.722 408.222 438.778 408.667 438.333C408.722 438.278 408.778 437.222 408.333 437.667z"/>
<path style="fill:#ad768d; stroke:none;" d="M359 438L360 439L359 438z"/>
<path style="fill:#f5c7a8; stroke:none;" d="M481 438L481 441C481.696 439.446 481.696 439.554 481 438z"/>
<path style="fill:#f1b48b; stroke:none;" d="M287 439L288 440L287 439z"/>
<path style="fill:#f1b38a; stroke:none;" d="M359 439L359 442C359.696 440.446 359.696 440.554 359 439z"/>
<path style="fill:#e77d36; stroke:none;" d="M408.333 439.667C408.278 439.722 408.222 440.778 408.667 440.333C408.722 440.278 408.778 439.222 408.333 439.667z"/>
<path style="fill:#fae6d8; stroke:none;" d="M225 440L225 443C225.696 441.446 225.696 441.554 225 440z"/>
<path style="fill:#e98746; stroke:none;" d="M287 440L288 441L287 440z"/>
<path style="fill:#f2b891; stroke:none;" d="M288 442L288 445C288.696 443.446 288.696 443.554 288 442z"/>
<path style="fill:#f0ab7d; stroke:none;" d="M225 443L225 446C225.696 444.446 225.696 444.554 225 443z"/>
<path style="fill:#eb9256; stroke:none;" d="M360 443L360 446C360.696 444.446 360.696 444.554 360 443z"/>
<path style="fill:#f3bc98; stroke:none;" d="M409 443L409 446C409.696 444.446 409.696 444.554 409 443z"/>
<path style="fill:#ea8c4e; stroke:none;" d="M482.333 443.667C482.278 443.722 482.222 444.778 482.667 444.333C482.722 444.278 482.778 443.222 482.333 443.667z"/>
<path style="fill:#f2b993; stroke:none;" d="M126 445L126 448C126.696 446.446 126.696 446.554 126 445z"/>
<path style="fill:#ad768d; stroke:none;" d="M288 445L289 446L288 445z"/>
<path style="fill:#f2b78f; stroke:none;" d="M482.333 445.667C482.278 445.722 482.222 446.778 482.667 446.333C482.722 446.278 482.778 445.222 482.333 445.667z"/>
<path style="fill:#e6772d; stroke:none;" d="M225 446L226 447L225 446z"/>
<path style="fill:#fae5d7; stroke:none;" d="M360.333 446.667C360.278 446.722 360.222 447.778 360.667 447.333C360.722 447.278 360.778 446.222 360.333 446.667z"/>
<path style="fill:#e77b33; stroke:none;" d="M409.333 446.667C409.278 446.722 409.222 447.778 409.667 447.333C409.722 447.278 409.778 446.222 409.333 446.667z"/>
<path style="fill:#efa676; stroke:none;" d="M289 447L289 450C289.696 448.446 289.696 448.554 289 447z"/>
<path style="fill:#f9dbc8; stroke:none;" d="M482.333 447.667C482.278 447.722 482.222 448.778 482.667 448.333C482.722 448.278 482.778 447.222 482.333 447.667z"/>
<path style="fill:#e67327; stroke:none;" d="M126 448L127 449L126 448z"/>
<path style="fill:#f7d6bf; stroke:none;" d="M224 448L225 449L224 448z"/>
<path style="fill:#f0aa7c; stroke:none;" d="M224 449L225 450L224 449z"/>
<path style="fill:#eb9256; stroke:none;" d="M361.333 449.667C361.278 449.722 361.222 450.778 361.667 450.333C361.722 450.278 361.778 449.222 361.333 449.667z"/>
<path style="fill:#f4c19f; stroke:none;" d="M127 450L128 451L127 450z"/>
<path style="fill:#e87e38; stroke:none;" d="M224 450L225 451L224 450z"/>
<path style="fill:#f5c9ab; stroke:none;" d="M410.333 450.667C410.278 450.722 410.222 451.778 410.667 451.333C410.722 451.278 410.778 450.222 410.333 450.667z"/>
<path style="fill:#ec965c; stroke:none;" d="M127 451L128 452L127 451z"/>
<path style="fill:#f5caad; stroke:none;" d="M361.333 451.667C361.278 451.722 361.222 452.778 361.667 452.333C361.722 452.278 361.778 451.222 361.333 451.667z"/>
<path style="fill:#f5c6a7; stroke:none;" d="M223 452L224 453L223 452z"/>
<path style="fill:#f1af84; stroke:none;" d="M290 452L290 455C290.696 453.446 290.696 453.554 290 452z"/>
<path style="fill:#ed9d68; stroke:none;" d="M410.333 452.667C410.278 452.722 410.222 453.778 410.667 453.333C410.722 453.278 410.778 452.222 410.333 452.667z"/>
<path style="fill:#ea8e50; stroke:none;" d="M483.333 452.667C483.278 452.722 483.222 453.778 483.667 453.333C483.722 453.278 483.778 452.222 483.333 452.667z"/>
<path style="fill:#f5c9ac; stroke:none;" d="M128 453L129 454L128 453z"/>
<path style="fill:#e98644; stroke:none;" d="M223 453L224 454L223 453z"/>
<path style="fill:#ea8b4b; stroke:none;" d="M128 454L129 455L128 454z"/>
<path style="fill:#e77d36; stroke:none;" d="M410.333 454.667C410.278 454.722 410.222 455.778 410.667 455.333C410.722 455.278 410.778 454.222 410.333 454.667z"/>
<path style="fill:#f1af84; stroke:none;" d="M483.333 454.667C483.278 454.722 483.222 455.778 483.667 455.333C483.722 455.278 483.778 454.222 483.333 454.667z"/>
<path style="fill:#f0af83; stroke:none;" d="M222 455L223 456L222 455z"/>
<path style="fill:#e6782e; stroke:none;" d="M290 455L291 456L290 455z"/>
<path style="fill:#e98441; stroke:none;" d="M362 455L362 458C362.696 456.446 362.696 456.554 362 455z"/>
<path style="fill:#f1b38a; stroke:none;" d="M129 456L130 457L129 456z"/>
<path style="fill:#e57326; stroke:none;" d="M222 456L223 457L222 456z"/>
<path style="fill:#98789d; stroke:none;" d="M410 456L411 457L410 456z"/>
<path style="fill:#f6cbaf; stroke:none;" d="M483 456L483 459C483.696 457.446 483.696 457.554 483 456z"/>
<path style="fill:#f5c5a6; stroke:none;" d="M221 457L222 458L221 457z"/>
<path style="fill:#f2b68e; stroke:none;" d="M130 458L131 459L130 458z"/>
<path style="fill:#e67529; stroke:none;" d="M221 458L222 459L221 458z"/>
<path style="fill:#f0af83; stroke:none;" d="M291.333 458.667C291.278 458.722 291.222 459.778 291.667 459.333C291.722 459.278 291.778 458.222 291.333 458.667z"/>
<path style="fill:#f4c09e; stroke:none;" d="M362.333 458.667C362.278 458.722 362.222 459.778 362.667 459.333C362.722 459.278 362.778 458.222 362.333 458.667z"/>
<path style="fill:#f5c7a8; stroke:none;" d="M220 459L221 460L220 459z"/>
<path style="fill:#f8d8c3; stroke:none;" d="M411 459L411 462C411.696 460.446 411.696 460.554 411 459z"/>
<path style="fill:#f2ba94; stroke:none;" d="M131 460L132 461L131 460z"/>
<path style="fill:#e6782e; stroke:none;" d="M220 460L221 461L220 460z"/>
<path style="fill:#e98543; stroke:none;" d="M291 460L291 463C291.696 461.446 291.696 461.554 291 460z"/>
<path style="fill:#f3ba95; stroke:none;" d="M219 461L220 462L219 461z"/>
<path style="fill:#ec9860; stroke:none;" d="M132 462L133 463L132 462z"/>
<path style="fill:#f0ad80; stroke:none;" d="M411.333 462.667C411.278 462.722 411.222 463.778 411.667 463.333C411.722 463.278 411.778 462.222 411.333 462.667z"/>
<path style="fill:#5b7db8; stroke:none;" d="M484 462L485 463L484 462z"/>
<path style="fill:#f7d4bd; stroke:none;" d="M133 463L134 464L133 463z"/>
<path style="fill:#eb9459; stroke:none;" d="M218 463L219 464L218 463z"/>
<path style="fill:#98789d; stroke:none;" d="M363 463L364 464L363 463z"/>
<path style="fill:#e98441; stroke:none;" d="M484 463L484 466C484.696 464.446 484.696 464.554 484 463z"/>
<path style="fill:#e6772d; stroke:none;" d="M133 464L134 465L133 464z"/>
<path style="fill:#f7d6bf; stroke:none;" d="M217 464L218 465L217 464z"/>
<path style="fill:#ec955b; stroke:none;" d="M363.333 464.667C363.278 464.722 363.222 465.778 363.667 465.333C363.722 465.278 363.778 464.222 363.333 464.667z"/>
<path style="fill:#e8823e; stroke:none;" d="M411 464L411 470C411.951 467.715 411.951 466.285 411 464z"/>
<path style="fill:#eea16e; stroke:none;" d="M134 465L135 466L134 465z"/>
<path style="fill:#f5c6a7; stroke:none;" d="M292.333 465.667C292.278 465.722 292.222 466.778 292.667 466.333C292.722 466.278 292.778 465.222 292.333 465.667z"/>
<path style="fill:#f4c3a2; stroke:none;" d="M135 466L136 467L135 466z"/>
<path style="fill:#e98441; stroke:none;" d="M216 466L217 467L216 466z"/>
<path style="fill:#f1b187; stroke:none;" d="M363 466L363 469C363.696 467.446 363.696 467.554 363 466z"/>
<path style="fill:#eea472; stroke:none;" d="M484 466L484 469C484.696 467.446 484.696 467.554 484 466z"/>
<path style="fill:#efa97a; stroke:none;" d="M215 467L216 468L215 467z"/>
<path style="fill:#ed9f6a; stroke:none;" d="M292.333 467.667C292.278 467.722 292.222 468.778 292.667 468.333C292.722 468.278 292.778 467.222 292.333 467.667z"/>
<path style="fill:#e6772d; stroke:none;" d="M136 468L137 469L136 468z"/>
<path style="fill:#f6d0b6; stroke:none;" d="M214 468L215 469L214 468z"/>
<path style="fill:#e87e38; stroke:none;" d="M137 469L138 470L137 469z"/>
<path style="fill:#f8d6c0; stroke:none;" d="M213 469L214 470L213 469z"/>
<path style="fill:#e8833f; stroke:none;" d="M292 469L292 472C292.696 470.446 292.696 470.554 292 469z"/>
<path style="fill:#f8d9c5; stroke:none;" d="M363.333 469.667C363.278 469.722 363.222 470.778 363.667 470.333C363.722 470.278 363.778 469.222 363.333 469.667z"/>
<path style="fill:#f7d5be; stroke:none;" d="M484 469L484 474C484.83 471.969 484.83 471.03 484 469z"/>
<path style="fill:#e98644; stroke:none;" d="M138 470L139 471L138 470z"/>
<path style="fill:#7e7bab; stroke:none;" d="M411 470L412 471L411 470z"/>
<path style="fill:#ea8e50; stroke:none;" d="M139 471L140 472L139 471z"/>
<path style="fill:#ec975e; stroke:none;" d="M140 472L141 473L140 472z"/>
<path style="fill:#98789d; stroke:none;" d="M211 472L212 473L211 472z"/>
<path style="fill:#e87f39; stroke:none;" d="M141 473L142 474L141 473z"/>
<path style="fill:#f6ceb4; stroke:none;" d="M209 473L210 474L209 473z"/>
<path style="fill:#e57124; stroke:none;" d="M142 474L143 475L142 474z"/>
<path style="fill:#f3bc97; stroke:none;" d="M208 474L209 475L208 474z"/>
<path style="fill:#fcede3; stroke:none;" d="M412 474L412 487C413.591 483.209 413.591 477.791 412 474z"/>
<path style="fill:#5b7db8; stroke:none;" d="M143 475L144 476L143 475z"/>
<path style="fill:#efaa7b; stroke:none;" d="M207 475L208 476L207 475z"/>
<path style="fill:#f9ddcb; stroke:none;" d="M293.333 475.667C293.278 475.722 293.222 476.778 293.667 476.333C293.722 476.278 293.778 475.222 293.333 475.667z"/>
<path style="fill:#eb9459; stroke:none;" d="M364 475L364 479C364.71 477.241 364.71 476.759 364 475z"/>
<path style="fill:#eea26f; stroke:none;" d="M145 476L146 477L145 476z"/>
<path style="fill:#e77b33; stroke:none;" d="M206 476L207 477L206 476z"/>
<path style="fill:#e77c34; stroke:none;" d="M146 477L147 478L146 477z"/>
<path style="fill:#f2b891; stroke:none;" d="M204 477L205 478L204 477z"/>
<path style="fill:#f2ba94; stroke:none;" d="M293 477L293 482C293.83 479.97 293.83 479.03 293 477z"/>
<path style="fill:#f2b892; stroke:none;" d="M148 478L149 479L148 478z"/>
<path style="fill:#eb9054; stroke:none;" d="M203 478L204 479L203 478z"/>
<path style="fill:#e57225; stroke:none;" d="M149 479L150 480L149 479z"/>
<path style="fill:#f6d0b6; stroke:none;" d="M150 479L151 480L150 479z"/>
<path style="fill:#eea26f; stroke:none;" d="M201 479L202 480L201 479z"/>
<path style="fill:#f0ad81; stroke:none;" d="M364 479L364 486C365.059 483.466 365.059 481.534 364 479z"/>
<path style="fill:#ec955b; stroke:none;" d="M151 480L152 481L151 480z"/>
<path style="fill:#f5caad; stroke:none;" d="M199 480L200 481L199 480z"/>
<path style="fill:#e57225; stroke:none;" d="M200 480L201 481L200 480z"/>
<path style="fill:#ea8c4d; stroke:none;" d="M153 481L154 482L153 481z"/>
<path style="fill:#f2b891; stroke:none;" d="M197 481L198 482L197 481z"/>
<path style="fill:#bf757a; stroke:none;" d="M198 481L199 482L198 481z"/>
<path style="fill:#e98948; stroke:none;" d="M155 482L156 483L155 482z"/>
<path style="fill:#f7d0b7; stroke:none;" d="M156 482L157 483L156 482z"/>
<path style="fill:#f2b68e; stroke:none;" d="M195 482L196 483L195 482z"/>
<path style="fill:#98789d; stroke:none;" d="M196 482L197 483L196 482z"/>
<path style="fill:#ee9f6b; stroke:none;" d="M293 482L293 488C293.951 485.715 293.951 484.285 293 482z"/>
<path style="fill:#ec975e; stroke:none;" d="M158 483L159 484L158 483z"/>
<path style="fill:#f6ceb3; stroke:none;" d="M159 483L160 484L159 483z"/>
<path style="fill:#f2b891; stroke:none;" d="M192 483L193 484L192 483z"/>
<path style="fill:#e8813c; stroke:none;" d="M193 483L194 484L193 483z"/>
<path style="fill:#bf757a; stroke:none;" d="M485 483L486 484L485 483z"/>
<path style="fill:#7e7bab; stroke:none;" d="M160 484L161 485L160 484z"/>
<path style="fill:#ed9b64; stroke:none;" d="M161 484L162 485L161 484z"/>
<path style="fill:#f4c3a3; stroke:none;" d="M162 484L163 485L162 484z"/>
<path style="fill:#f1b38a; stroke:none;" d="M189 484L190 485L189 484z"/>
<path style="fill:#ea8a4a; stroke:none;" d="M190 484L191 485L190 484z"/>
<path style="fill:#e77c35; stroke:none;" d="M485 484L485 488C485.71 486.241 485.71 485.759 485 484z"/>
<path style="fill:#e57124; stroke:none;" d="M164 485L165 486L164 485z"/>
<path style="fill:#f2b58d; stroke:none;" d="M165.667 485.333C165.222 485.778 166.278 485.722 166.333 485.667C166.778 485.222 165.722 485.278 165.667 485.333z"/>
<path style="fill:#fbe6d9; stroke:none;" d="M167.667 485.333C167.222 485.778 168.278 485.722 168.333 485.667C168.778 485.222 167.722 485.278 167.667 485.333z"/>
<path style="fill:#f4c4a4; stroke:none;" d="M183 485C184.248 485.685 184.548 485.749 186 486C184.752 485.315 184.452 485.251 183 485z"/>
<path style="fill:#ea8a4a; stroke:none;" d="M186 485L187 486L186 485z"/>
<path style="fill:#eb8e51; stroke:none;" d="M170 486C173.432 487.44 177.3 487 181 487C177.568 485.56 173.7 486 170 486z"/>
<path style="fill:#f6cdb2; stroke:none;" d="M364.333 486.667C364.278 486.722 364.222 487.778 364.667 487.333C364.722 487.278 364.778 486.222 364.333 486.667z"/>
<path style="fill:#efa777; stroke:none;" d="M412 487C416.471 488.876 422.183 488 427 488C422.529 486.124 416.817 487 412 487z"/>
<path style="fill:#f5c8aa; stroke:none;" d="M427 487C431.217 488.769 436.459 488 441 488C436.783 486.231 431.541 487 427 487z"/>
<path style="fill:#fbe9dd; stroke:none;" d="M441 487C445.471 488.876 451.183 488 456 488C451.529 486.124 445.817 487 441 487z"/>
<path style="fill:#5b7db8; stroke:none;" d="M293 488L294 489L293 488z"/>
<path style="fill:#eb9155; stroke:none;" d="M294 488C300.194 490.599 309.314 489 316 489L365 489C358.806 486.401 349.686 488 343 488L294 488z"/>
<path style="fill:#e77b33; stroke:none;" d="M466 488C470.217 489.769 475.459 489 480 489C475.783 487.231 470.541 488 466 488z"/>
<path style="fill:#eb9155; stroke:none;" d="M480 488C481.769 488.779 483.036 488.912 485 489C483.231 488.221 481.964 488.088 480 488z"/>
</svg>
